^D:\USERS\KIERRAN\SKYDRIVE\PROGRAMMING\C++\TETRIS\TETRIS\STDAFX.CPP
D:\PROGRAM FILES (X86)\MICROSOFT VISUAL STUDIO 11.0\VC\BIN\1033\CLUI.DLL
C:\WINDOWS\GLOBALIZATION\SORTING\SORTDEFAULT.NLS
C:\WINDOWS\MICROSOFT.NET\FRAMEWORK\V2.0.50727\MSCORWKS.DLL
C:\WINDOWS\MICROSOFT.NET\FRAMEWORK\V4.0.30319\CLR.DLL
D:\PROGRAM FILES (X86)\MICROSOFT VISUAL STUDIO 11.0\VC\BIN\CL.EXE.CONFIG
C:\WINDOWS\SYSTEM32\TZRES.DLL
D:\PROGRAM FILES (X86)\MICROSOFT VISUAL STUDIO 11.0\COMMON7\IDE\MSPDBSRV.EXE
D:\PROGRAM FILES (X86)\REFERENCE ASSEMBLIES\MICROSOFT\FRAMEWORK\.NETFRAMEWORK\V4.5\MSCORLIB.DLL
D:\PROGRAM FILES (X86)\REFERENCE ASSEMBLIES\MICROSOFT\FRAMEWORK\.NETFRAMEWORK\V4.5\SYSTEM.DATA.DLL
D:\PROGRAM FILES (X86)\REFERENCE ASSEMBLIES\MICROSOFT\FRAMEWORK\.NETFRAMEWORK\V4.5\SYSTEM.DLL
D:\PROGRAM FILES (X86)\REFERENCE ASSEMBLIES\MICROSOFT\FRAMEWORK\.NETFRAMEWORK\V4.5\SYSTEM.DRAWING.DLL
D:\PROGRAM FILES (X86)\REFERENCE ASSEMBLIES\MICROSOFT\FRAMEWORK\.NETFRAMEWORK\V4.5\SYSTEM.WINDOWS.FORMS.DLL
D:\PROGRAM FILES (X86)\REFERENCE ASSEMBLIES\MICROSOFT\FRAMEWORK\.NETFRAMEWORK\V4.5\SYSTEM.XML.DLL
D:\USERS\KIERRAN\SKYDRIVE\PROGRAMMING\C++\TETRIS\TETRIS\STDAFX.H
^D:\USERS\KIERRAN\SKYDRIVE\PROGRAMMING\C++\TETRIS\TETRIS\ASSEMBLYINFO.CPP
D:\USERS\KIERRAN\SKYDRIVE\PROGRAMMING\C++\TETRIS\TETRIS\DEBUG\TETRIS.PCH
D:\PROGRAM FILES (X86)\MICROSOFT VISUAL STUDIO 11.0\VC\BIN\CL.EXE.CONFIG
D:\PROGRAM FILES (X86)\REFERENCE ASSEMBLIES\MICROSOFT\FRAMEWORK\.NETFRAMEWORK\V4.5\MSCORLIB.DLL
D:\PROGRAM FILES (X86)\REFERENCE ASSEMBLIES\MICROSOFT\FRAMEWORK\.NETFRAMEWORK\V4.5\SYSTEM.DATA.DLL
D:\PROGRAM FILES (X86)\REFERENCE ASSEMBLIES\MICROSOFT\FRAMEWORK\.NETFRAMEWORK\V4.5\SYSTEM.DLL
D:\PROGRAM FILES (X86)\REFERENCE ASSEMBLIES\MICROSOFT\FRAMEWORK\.NETFRAMEWORK\V4.5\SYSTEM.DRAWING.DLL
D:\PROGRAM FILES (X86)\REFERENCE ASSEMBLIES\MICROSOFT\FRAMEWORK\.NETFRAMEWORK\V4.5\SYSTEM.WINDOWS.FORMS.DLL
D:\PROGRAM FILES (X86)\REFERENCE ASSEMBLIES\MICROSOFT\FRAMEWORK\.NETFRAMEWORK\V4.5\SYSTEM.XML.DLL
D:\USERS\KIERRAN\SKYDRIVE\PROGRAMMING\C++\TETRIS\TETRIS\DEBUG\STDAFX.OBJ
^D:\USERS\KIERRAN\SKYDRIVE\PROGRAMMING\C++\TETRIS\TETRIS\BLOCK.CPP
D:\USERS\KIERRAN\SKYDRIVE\PROGRAMMING\C++\TETRIS\TETRIS\DEBUG\TETRIS.PCH
D:\PROGRAM FILES (X86)\MICROSOFT VISUAL STUDIO 11.0\VC\BIN\CL.EXE.CONFIG
D:\PROGRAM FILES (X86)\REFERENCE ASSEMBLIES\MICROSOFT\FRAMEWORK\.NETFRAMEWORK\V4.5\MSCORLIB.DLL
D:\PROGRAM FILES (X86)\REFERENCE ASSEMBLIES\MICROSOFT\FRAMEWORK\.NETFRAMEWORK\V4.5\SYSTEM.DATA.DLL
D:\PROGRAM FILES (X86)\REFERENCE ASSEMBLIES\MICROSOFT\FRAMEWORK\.NETFRAMEWORK\V4.5\SYSTEM.DLL
D:\PROGRAM FILES (X86)\REFERENCE ASSEMBLIES\MICROSOFT\FRAMEWORK\.NETFRAMEWORK\V4.5\SYSTEM.DRAWING.DLL
D:\PROGRAM FILES (X86)\REFERENCE ASSEMBLIES\MICROSOFT\FRAMEWORK\.NETFRAMEWORK\V4.5\SYSTEM.WINDOWS.FORMS.DLL
D:\PROGRAM FILES (X86)\REFERENCE ASSEMBLIES\MICROSOFT\FRAMEWORK\.NETFRAMEWORK\V4.5\SYSTEM.XML.DLL
D:\USERS\KIERRAN\SKYDRIVE\PROGRAMMING\C++\TETRIS\TETRIS\DEBUG\STDAFX.OBJ
D:\USERS\KIERRAN\SKYDRIVE\PROGRAMMING\C++\TETRIS\TETRIS\BLOCK.H
D:\USERS\KIERRAN\SKYDRIVE\PROGRAMMING\C++\TETRIS\TETRIS\GRID.H
D:\USERS\KIERRAN\SKYDRIVE\PROGRAMMING\C++\TETRIS\TETRIS\CELL.H
^D:\USERS\KIERRAN\SKYDRIVE\PROGRAMMING\C++\TETRIS\TETRIS\CELL.CPP
D:\USERS\KIERRAN\SKYDRIVE\PROGRAMMING\C++\TETRIS\TETRIS\DEBUG\TETRIS.PCH
D:\PROGRAM FILES (X86)\MICROSOFT VISUAL STUDIO 11.0\VC\BIN\CL.EXE.CONFIG
D:\PROGRAM FILES (X86)\REFERENCE ASSEMBLIES\MICROSOFT\FRAMEWORK\.NETFRAMEWORK\V4.5\MSCORLIB.DLL
D:\PROGRAM FILES (X86)\REFERENCE ASSEMBLIES\MICROSOFT\FRAMEWORK\.NETFRAMEWORK\V4.5\SYSTEM.DATA.DLL
D:\PROGRAM FILES (X86)\REFERENCE ASSEMBLIES\MICROSOFT\FRAMEWORK\.NETFRAMEWORK\V4.5\SYSTEM.DLL
D:\PROGRAM FILES (X86)\REFERENCE ASSEMBLIES\MICROSOFT\FRAMEWORK\.NETFRAMEWORK\V4.5\SYSTEM.DRAWING.DLL
D:\PROGRAM FILES (X86)\REFERENCE ASSEMBLIES\MICROSOFT\FRAMEWORK\.NETFRAMEWORK\V4.5\SYSTEM.WINDOWS.FORMS.DLL
D:\PROGRAM FILES (X86)\REFERENCE ASSEMBLIES\MICROSOFT\FRAMEWORK\.NETFRAMEWORK\V4.5\SYSTEM.XML.DLL
D:\USERS\KIERRAN\SKYDRIVE\PROGRAMMING\C++\TETRIS\TETRIS\DEBUG\STDAFX.OBJ
D:\USERS\KIERRAN\SKYDRIVE\PROGRAMMING\C++\TETRIS\TETRIS\CELL.H
^D:\USERS\KIERRAN\SKYDRIVE\PROGRAMMING\C++\TETRIS\TETRIS\GRID.CPP
D:\USERS\KIERRAN\SKYDRIVE\PROGRAMMING\C++\TETRIS\TETRIS\DEBUG\TETRIS.PCH
D:\PROGRAM FILES (X86)\MICROSOFT VISUAL STUDIO 11.0\VC\BIN\CL.EXE.CONFIG
D:\PROGRAM FILES (X86)\REFERENCE ASSEMBLIES\MICROSOFT\FRAMEWORK\.NETFRAMEWORK\V4.5\MSCORLIB.DLL
D:\PROGRAM FILES (X86)\REFERENCE ASSEMBLIES\MICROSOFT\FRAMEWORK\.NETFRAMEWORK\V4.5\SYSTEM.DATA.DLL
D:\PROGRAM FILES (X86)\REFERENCE ASSEMBLIES\MICROSOFT\FRAMEWORK\.NETFRAMEWORK\V4.5\SYSTEM.DLL
D:\PROGRAM FILES (X86)\REFERENCE ASSEMBLIES\MICROSOFT\FRAMEWORK\.NETFRAMEWORK\V4.5\SYSTEM.DRAWING.DLL
D:\PROGRAM FILES (X86)\REFERENCE ASSEMBLIES\MICROSOFT\FRAMEWORK\.NETFRAMEWORK\V4.5\SYSTEM.WINDOWS.FORMS.DLL
D:\PROGRAM FILES (X86)\REFERENCE ASSEMBLIES\MICROSOFT\FRAMEWORK\.NETFRAMEWORK\V4.5\SYSTEM.XML.DLL
D:\USERS\KIERRAN\SKYDRIVE\PROGRAMMING\C++\TETRIS\TETRIS\DEBUG\STDAFX.OBJ
D:\USERS\KIERRAN\SKYDRIVE\PROGRAMMING\C++\TETRIS\TETRIS\GRID.H
D:\USERS\KIERRAN\SKYDRIVE\PROGRAMMING\C++\TETRIS\TETRIS\CELL.H
^D:\USERS\KIERRAN\SKYDRIVE\PROGRAMMING\C++\TETRIS\TETRIS\JBLOCK.CPP
D:\USERS\KIERRAN\SKYDRIVE\PROGRAMMING\C++\TETRIS\TETRIS\DEBUG\TETRIS.PCH
D:\PROGRAM FILES (X86)\MICROSOFT VISUAL STUDIO 11.0\VC\BIN\CL.EXE.CONFIG
D:\PROGRAM FILES (X86)\REFERENCE ASSEMBLIES\MICROSOFT\FRAMEWORK\.NETFRAMEWORK\V4.5\MSCORLIB.DLL
D:\PROGRAM FILES (X86)\REFERENCE ASSEMBLIES\MICROSOFT\FRAMEWORK\.NETFRAMEWORK\V4.5\SYSTEM.DATA.DLL
D:\PROGRAM FILES (X86)\REFERENCE ASSEMBLIES\MICROSOFT\FRAMEWORK\.NETFRAMEWORK\V4.5\SYSTEM.DLL
D:\PROGRAM FILES (X86)\REFERENCE ASSEMBLIES\MICROSOFT\FRAMEWORK\.NETFRAMEWORK\V4.5\SYSTEM.DRAWING.DLL
D:\PROGRAM FILES (X86)\REFERENCE ASSEMBLIES\MICROSOFT\FRAMEWORK\.NETFRAMEWORK\V4.5\SYSTEM.WINDOWS.FORMS.DLL
D:\PROGRAM FILES (X86)\REFERENCE ASSEMBLIES\MICROSOFT\FRAMEWORK\.NETFRAMEWORK\V4.5\SYSTEM.XML.DLL
D:\USERS\KIERRAN\SKYDRIVE\PROGRAMMING\C++\TETRIS\TETRIS\DEBUG\STDAFX.OBJ
D:\USERS\KIERRAN\SKYDRIVE\PROGRAMMING\C++\TETRIS\TETRIS\JBLOCK.H
D:\USERS\KIERRAN\SKYDRIVE\PROGRAMMING\C++\TETRIS\TETRIS\BLOCK.H
D:\USERS\KIERRAN\SKYDRIVE\PROGRAMMING\C++\TETRIS\TETRIS\GRID.H
D:\USERS\KIERRAN\SKYDRIVE\PROGRAMMING\C++\TETRIS\TETRIS\CELL.H
^D:\USERS\KIERRAN\SKYDRIVE\PROGRAMMING\C++\TETRIS\TETRIS\LBLOCK.CPP
D:\USERS\KIERRAN\SKYDRIVE\PROGRAMMING\C++\TETRIS\TETRIS\DEBUG\TETRIS.PCH
D:\PROGRAM FILES (X86)\MICROSOFT VISUAL STUDIO 11.0\VC\BIN\CL.EXE.CONFIG
D:\PROGRAM FILES (X86)\REFERENCE ASSEMBLIES\MICROSOFT\FRAMEWORK\.NETFRAMEWORK\V4.5\MSCORLIB.DLL
D:\PROGRAM FILES (X86)\REFERENCE ASSEMBLIES\MICROSOFT\FRAMEWORK\.NETFRAMEWORK\V4.5\SYSTEM.DATA.DLL
D:\PROGRAM FILES (X86)\REFERENCE ASSEMBLIES\MICROSOFT\FRAMEWORK\.NETFRAMEWORK\V4.5\SYSTEM.DLL
D:\PROGRAM FILES (X86)\REFERENCE ASSEMBLIES\MICROSOFT\FRAMEWORK\.NETFRAMEWORK\V4.5\SYSTEM.DRAWING.DLL
D:\PROGRAM FILES (X86)\REFERENCE ASSEMBLIES\MICROSOFT\FRAMEWORK\.NETFRAMEWORK\V4.5\SYSTEM.WINDOWS.FORMS.DLL
D:\PROGRAM FILES (X86)\REFERENCE ASSEMBLIES\MICROSOFT\FRAMEWORK\.NETFRAMEWORK\V4.5\SYSTEM.XML.DLL
D:\USERS\KIERRAN\SKYDRIVE\PROGRAMMING\C++\TETRIS\TETRIS\DEBUG\STDAFX.OBJ
D:\USERS\KIERRAN\SKYDRIVE\PROGRAMMING\C++\TETRIS\TETRIS\LBLOCK.H
D:\USERS\KIERRAN\SKYDRIVE\PROGRAMMING\C++\TETRIS\TETRIS\BLOCK.H
D:\USERS\KIERRAN\SKYDRIVE\PROGRAMMING\C++\TETRIS\TETRIS\GRID.H
D:\USERS\KIERRAN\SKYDRIVE\PROGRAMMING\C++\TETRIS\TETRIS\CELL.H
^D:\USERS\KIERRAN\SKYDRIVE\PROGRAMMING\C++\TETRIS\TETRIS\LONGBLOCK.CPP
D:\USERS\KIERRAN\SKYDRIVE\PROGRAMMING\C++\TETRIS\TETRIS\DEBUG\TETRIS.PCH
D:\PROGRAM FILES (X86)\MICROSOFT VISUAL STUDIO 11.0\VC\BIN\CL.EXE.CONFIG
D:\PROGRAM FILES (X86)\REFERENCE ASSEMBLIES\MICROSOFT\FRAMEWORK\.NETFRAMEWORK\V4.5\MSCORLIB.DLL
D:\PROGRAM FILES (X86)\REFERENCE ASSEMBLIES\MICROSOFT\FRAMEWORK\.NETFRAMEWORK\V4.5\SYSTEM.DATA.DLL
D:\PROGRAM FILES (X86)\REFERENCE ASSEMBLIES\MICROSOFT\FRAMEWORK\.NETFRAMEWORK\V4.5\SYSTEM.DLL
D:\PROGRAM FILES (X86)\REFERENCE ASSEMBLIES\MICROSOFT\FRAMEWORK\.NETFRAMEWORK\V4.5\SYSTEM.DRAWING.DLL
D:\PROGRAM FILES (X86)\REFERENCE ASSEMBLIES\MICROSOFT\FRAMEWORK\.NETFRAMEWORK\V4.5\SYSTEM.WINDOWS.FORMS.DLL
D:\PROGRAM FILES (X86)\REFERENCE ASSEMBLIES\MICROSOFT\FRAMEWORK\.NETFRAMEWORK\V4.5\SYSTEM.XML.DLL
D:\USERS\KIERRAN\SKYDRIVE\PROGRAMMING\C++\TETRIS\TETRIS\DEBUG\STDAFX.OBJ
D:\USERS\KIERRAN\SKYDRIVE\PROGRAMMING\C++\TETRIS\TETRIS\LONGBLOCK.H
D:\USERS\KIERRAN\SKYDRIVE\PROGRAMMING\C++\TETRIS\TETRIS\BLOCK.H
D:\USERS\KIERRAN\SKYDRIVE\PROGRAMMING\C++\TETRIS\TETRIS\GRID.H
D:\USERS\KIERRAN\SKYDRIVE\PROGRAMMING\C++\TETRIS\TETRIS\CELL.H
^D:\USERS\KIERRAN\SKYDRIVE\PROGRAMMING\C++\TETRIS\TETRIS\SBLOCK.CPP
D:\USERS\KIERRAN\SKYDRIVE\PROGRAMMING\C++\TETRIS\TETRIS\DEBUG\TETRIS.PCH
D:\PROGRAM FILES (X86)\MICROSOFT VISUAL STUDIO 11.0\VC\BIN\CL.EXE.CONFIG
D:\PROGRAM FILES (X86)\REFERENCE ASSEMBLIES\MICROSOFT\FRAMEWORK\.NETFRAMEWORK\V4.5\MSCORLIB.DLL
D:\PROGRAM FILES (X86)\REFERENCE ASSEMBLIES\MICROSOFT\FRAMEWORK\.NETFRAMEWORK\V4.5\SYSTEM.DATA.DLL
D:\PROGRAM FILES (X86)\REFERENCE ASSEMBLIES\MICROSOFT\FRAMEWORK\.NETFRAMEWORK\V4.5\SYSTEM.DLL
D:\PROGRAM FILES (X86)\REFERENCE ASSEMBLIES\MICROSOFT\FRAMEWORK\.NETFRAMEWORK\V4.5\SYSTEM.DRAWING.DLL
D:\PROGRAM FILES (X86)\REFERENCE ASSEMBLIES\MICROSOFT\FRAMEWORK\.NETFRAMEWORK\V4.5\SYSTEM.WINDOWS.FORMS.DLL
D:\PROGRAM FILES (X86)\REFERENCE ASSEMBLIES\MICROSOFT\FRAMEWORK\.NETFRAMEWORK\V4.5\SYSTEM.XML.DLL
D:\USERS\KIERRAN\SKYDRIVE\PROGRAMMING\C++\TETRIS\TETRIS\DEBUG\STDAFX.OBJ
D:\USERS\KIERRAN\SKYDRIVE\PROGRAMMING\C++\TETRIS\TETRIS\SBLOCK.H
D:\USERS\KIERRAN\SKYDRIVE\PROGRAMMING\C++\TETRIS\TETRIS\BLOCK.H
D:\USERS\KIERRAN\SKYDRIVE\PROGRAMMING\C++\TETRIS\TETRIS\GRID.H
D:\USERS\KIERRAN\SKYDRIVE\PROGRAMMING\C++\TETRIS\TETRIS\CELL.H
^D:\USERS\KIERRAN\SKYDRIVE\PROGRAMMING\C++\TETRIS\TETRIS\SQUAREBLOCK.CPP
D:\USERS\KIERRAN\SKYDRIVE\PROGRAMMING\C++\TETRIS\TETRIS\DEBUG\TETRIS.PCH
D:\PROGRAM FILES (X86)\MICROSOFT VISUAL STUDIO 11.0\VC\BIN\CL.EXE.CONFIG
D:\PROGRAM FILES (X86)\REFERENCE ASSEMBLIES\MICROSOFT\FRAMEWORK\.NETFRAMEWORK\V4.5\MSCORLIB.DLL
D:\PROGRAM FILES (X86)\REFERENCE ASSEMBLIES\MICROSOFT\FRAMEWORK\.NETFRAMEWORK\V4.5\SYSTEM.DATA.DLL
D:\PROGRAM FILES (X86)\REFERENCE ASSEMBLIES\MICROSOFT\FRAMEWORK\.NETFRAMEWORK\V4.5\SYSTEM.DLL
D:\PROGRAM FILES (X86)\REFERENCE ASSEMBLIES\MICROSOFT\FRAMEWORK\.NETFRAMEWORK\V4.5\SYSTEM.DRAWING.DLL
D:\PROGRAM FILES (X86)\REFERENCE ASSEMBLIES\MICROSOFT\FRAMEWORK\.NETFRAMEWORK\V4.5\SYSTEM.WINDOWS.FORMS.DLL
D:\PROGRAM FILES (X86)\REFERENCE ASSEMBLIES\MICROSOFT\FRAMEWORK\.NETFRAMEWORK\V4.5\SYSTEM.XML.DLL
D:\USERS\KIERRAN\SKYDRIVE\PROGRAMMING\C++\TETRIS\TETRIS\DEBUG\STDAFX.OBJ
D:\USERS\KIERRAN\SKYDRIVE\PROGRAMMING\C++\TETRIS\TETRIS\SQUAREBLOCK.H
D:\USERS\KIERRAN\SKYDRIVE\PROGRAMMING\C++\TETRIS\TETRIS\BLOCK.H
D:\USERS\KIERRAN\SKYDRIVE\PROGRAMMING\C++\TETRIS\TETRIS\GRID.H
D:\USERS\KIERRAN\SKYDRIVE\PROGRAMMING\C++\TETRIS\TETRIS\CELL.H
^D:\USERS\KIERRAN\SKYDRIVE\PROGRAMMING\C++\TETRIS\TETRIS\TBLOCK.CPP
D:\USERS\KIERRAN\SKYDRIVE\PROGRAMMING\C++\TETRIS\TETRIS\DEBUG\TETRIS.PCH
D:\PROGRAM FILES (X86)\MICROSOFT VISUAL STUDIO 11.0\VC\BIN\CL.EXE.CONFIG
D:\PROGRAM FILES (X86)\REFERENCE ASSEMBLIES\MICROSOFT\FRAMEWORK\.NETFRAMEWORK\V4.5\MSCORLIB.DLL
D:\PROGRAM FILES (X86)\REFERENCE ASSEMBLIES\MICROSOFT\FRAMEWORK\.NETFRAMEWORK\V4.5\SYSTEM.DATA.DLL
D:\PROGRAM FILES (X86)\REFERENCE ASSEMBLIES\MICROSOFT\FRAMEWORK\.NETFRAMEWORK\V4.5\SYSTEM.DLL
D:\PROGRAM FILES (X86)\REFERENCE ASSEMBLIES\MICROSOFT\FRAMEWORK\.NETFRAMEWORK\V4.5\SYSTEM.DRAWING.DLL
D:\PROGRAM FILES (X86)\REFERENCE ASSEMBLIES\MICROSOFT\FRAMEWORK\.NETFRAMEWORK\V4.5\SYSTEM.WINDOWS.FORMS.DLL
D:\PROGRAM FILES (X86)\REFERENCE ASSEMBLIES\MICROSOFT\FRAMEWORK\.NETFRAMEWORK\V4.5\SYSTEM.XML.DLL
D:\USERS\KIERRAN\SKYDRIVE\PROGRAMMING\C++\TETRIS\TETRIS\DEBUG\STDAFX.OBJ
D:\USERS\KIERRAN\SKYDRIVE\PROGRAMMING\C++\TETRIS\TETRIS\TBLOCK.H
D:\USERS\KIERRAN\SKYDRIVE\PROGRAMMING\C++\TETRIS\TETRIS\BLOCK.H
D:\USERS\KIERRAN\SKYDRIVE\PROGRAMMING\C++\TETRIS\TETRIS\GRID.H
D:\USERS\KIERRAN\SKYDRIVE\PROGRAMMING\C++\TETRIS\TETRIS\CELL.H
^D:\USERS\KIERRAN\SKYDRIVE\PROGRAMMING\C++\TETRIS\TETRIS\TETRIS.CPP
D:\USERS\KIERRAN\SKYDRIVE\PROGRAMMING\C++\TETRIS\TETRIS\DEBUG\TETRIS.PCH
D:\PROGRAM FILES (X86)\MICROSOFT VISUAL STUDIO 11.0\VC\BIN\CL.EXE.CONFIG
D:\PROGRAM FILES (X86)\REFERENCE ASSEMBLIES\MICROSOFT\FRAMEWORK\.NETFRAMEWORK\V4.5\MSCORLIB.DLL
D:\PROGRAM FILES (X86)\REFERENCE ASSEMBLIES\MICROSOFT\FRAMEWORK\.NETFRAMEWORK\V4.5\SYSTEM.DATA.DLL
D:\PROGRAM FILES (X86)\REFERENCE ASSEMBLIES\MICROSOFT\FRAMEWORK\.NETFRAMEWORK\V4.5\SYSTEM.DLL
D:\PROGRAM FILES (X86)\REFERENCE ASSEMBLIES\MICROSOFT\FRAMEWORK\.NETFRAMEWORK\V4.5\SYSTEM.DRAWING.DLL
D:\PROGRAM FILES (X86)\REFERENCE ASSEMBLIES\MICROSOFT\FRAMEWORK\.NETFRAMEWORK\V4.5\SYSTEM.WINDOWS.FORMS.DLL
D:\PROGRAM FILES (X86)\REFERENCE ASSEMBLIES\MICROSOFT\FRAMEWORK\.NETFRAMEWORK\V4.5\SYSTEM.XML.DLL
D:\USERS\KIERRAN\SKYDRIVE\PROGRAMMING\C++\TETRIS\TETRIS\DEBUG\STDAFX.OBJ
D:\USERS\KIERRAN\SKYDRIVE\PROGRAMMING\C++\TETRIS\TETRIS\FORM1.H
D:\USERS\KIERRAN\SKYDRIVE\PROGRAMMING\C++\TETRIS\TETRIS\TETRISGAME.H
D:\USERS\KIERRAN\SKYDRIVE\PROGRAMMING\C++\TETRIS\TETRIS\BLOCK.H
D:\USERS\KIERRAN\SKYDRIVE\PROGRAMMING\C++\TETRIS\TETRIS\GRID.H
D:\USERS\KIERRAN\SKYDRIVE\PROGRAMMING\C++\TETRIS\TETRIS\CELL.H
D:\USERS\KIERRAN\SKYDRIVE\PROGRAMMING\C++\TETRIS\TETRIS\SQUAREBLOCK.H
D:\USERS\KIERRAN\SKYDRIVE\PROGRAMMING\C++\TETRIS\TETRIS\LONGBLOCK.H
D:\USERS\KIERRAN\SKYDRIVE\PROGRAMMING\C++\TETRIS\TETRIS\TBLOCK.H
D:\USERS\KIERRAN\SKYDRIVE\PROGRAMMING\C++\TETRIS\TETRIS\ZBLOCK.H
D:\USERS\KIERRAN\SKYDRIVE\PROGRAMMING\C++\TETRIS\TETRIS\SBLOCK.H
D:\USERS\KIERRAN\SKYDRIVE\PROGRAMMING\C++\TETRIS\TETRIS\LBLOCK.H
D:\USERS\KIERRAN\SKYDRIVE\PROGRAMMING\C++\TETRIS\TETRIS\JBLOCK.H
^D:\USERS\KIERRAN\SKYDRIVE\PROGRAMMING\C++\TETRIS\TETRIS\TETRISGAME.CPP
D:\USERS\KIERRAN\SKYDRIVE\PROGRAMMING\C++\TETRIS\TETRIS\DEBUG\TETRIS.PCH
D:\PROGRAM FILES (X86)\MICROSOFT VISUAL STUDIO 11.0\VC\BIN\CL.EXE.CONFIG
D:\PROGRAM FILES (X86)\REFERENCE ASSEMBLIES\MICROSOFT\FRAMEWORK\.NETFRAMEWORK\V4.5\MSCORLIB.DLL
D:\PROGRAM FILES (X86)\REFERENCE ASSEMBLIES\MICROSOFT\FRAMEWORK\.NETFRAMEWORK\V4.5\SYSTEM.DATA.DLL
D:\PROGRAM FILES (X86)\REFERENCE ASSEMBLIES\MICROSOFT\FRAMEWORK\.NETFRAMEWORK\V4.5\SYSTEM.DLL
D:\PROGRAM FILES (X86)\REFERENCE ASSEMBLIES\MICROSOFT\FRAMEWORK\.NETFRAMEWORK\V4.5\SYSTEM.DRAWING.DLL
D:\PROGRAM FILES (X86)\REFERENCE ASSEMBLIES\MICROSOFT\FRAMEWORK\.NETFRAMEWORK\V4.5\SYSTEM.WINDOWS.FORMS.DLL
D:\PROGRAM FILES (X86)\REFERENCE ASSEMBLIES\MICROSOFT\FRAMEWORK\.NETFRAMEWORK\V4.5\SYSTEM.XML.DLL
D:\USERS\KIERRAN\SKYDRIVE\PROGRAMMING\C++\TETRIS\TETRIS\DEBUG\STDAFX.OBJ
D:\USERS\KIERRAN\SKYDRIVE\PROGRAMMING\C++\TETRIS\TETRIS\TETRISGAME.H
D:\USERS\KIERRAN\SKYDRIVE\PROGRAMMING\C++\TETRIS\TETRIS\BLOCK.H
D:\USERS\KIERRAN\SKYDRIVE\PROGRAMMING\C++\TETRIS\TETRIS\GRID.H
D:\USERS\KIERRAN\SKYDRIVE\PROGRAMMING\C++\TETRIS\TETRIS\CELL.H
D:\USERS\KIERRAN\SKYDRIVE\PROGRAMMING\C++\TETRIS\TETRIS\SQUAREBLOCK.H
D:\USERS\KIERRAN\SKYDRIVE\PROGRAMMING\C++\TETRIS\TETRIS\LONGBLOCK.H
D:\USERS\KIERRAN\SKYDRIVE\PROGRAMMING\C++\TETRIS\TETRIS\TBLOCK.H
D:\USERS\KIERRAN\SKYDRIVE\PROGRAMMING\C++\TETRIS\TETRIS\ZBLOCK.H
D:\USERS\KIERRAN\SKYDRIVE\PROGRAMMING\C++\TETRIS\TETRIS\SBLOCK.H
D:\USERS\KIERRAN\SKYDRIVE\PROGRAMMING\C++\TETRIS\TETRIS\LBLOCK.H
D:\USERS\KIERRAN\SKYDRIVE\PROGRAMMING\C++\TETRIS\TETRIS\JBLOCK.H
^D:\USERS\KIERRAN\SKYDRIVE\PROGRAMMING\C++\TETRIS\TETRIS\ZBLOCK.CPP
D:\USERS\KIERRAN\SKYDRIVE\PROGRAMMING\C++\TETRIS\TETRIS\DEBUG\TETRIS.PCH
D:\PROGRAM FILES (X86)\MICROSOFT VISUAL STUDIO 11.0\VC\BIN\CL.EXE.CONFIG
D:\PROGRAM FILES (X86)\REFERENCE ASSEMBLIES\MICROSOFT\FRAMEWORK\.NETFRAMEWORK\V4.5\MSCORLIB.DLL
D:\PROGRAM FILES (X86)\REFERENCE ASSEMBLIES\MICROSOFT\FRAMEWORK\.NETFRAMEWORK\V4.5\SYSTEM.DATA.DLL
D:\PROGRAM FILES (X86)\REFERENCE ASSEMBLIES\MICROSOFT\FRAMEWORK\.NETFRAMEWORK\V4.5\SYSTEM.DLL
D:\PROGRAM FILES (X86)\REFERENCE ASSEMBLIES\MICROSOFT\FRAMEWORK\.NETFRAMEWORK\V4.5\SYSTEM.DRAWING.DLL
D:\PROGRAM FILES (X86)\REFERENCE ASSEMBLIES\MICROSOFT\FRAMEWORK\.NETFRAMEWORK\V4.5\SYSTEM.WINDOWS.FORMS.DLL
D:\PROGRAM FILES (X86)\REFERENCE ASSEMBLIES\MICROSOFT\FRAMEWORK\.NETFRAMEWORK\V4.5\SYSTEM.XML.DLL
D:\USERS\KIERRAN\SKYDRIVE\PROGRAMMING\C++\TETRIS\TETRIS\DEBUG\STDAFX.OBJ
D:\USERS\KIERRAN\SKYDRIVE\PROGRAMMING\C++\TETRIS\TETRIS\ZBLOCK.H
D:\USERS\KIERRAN\SKYDRIVE\PROGRAMMING\C++\TETRIS\TETRIS\BLOCK.H
D:\USERS\KIERRAN\SKYDRIVE\PROGRAMMING\C++\TETRIS\TETRIS\GRID.H
D:\USERS\KIERRAN\SKYDRIVE\PROGRAMMING\C++\TETRIS\TETRIS\CELL.H
^D:\USERS\KIERRAN\APPDATA\LOCAL\TEMP\.NETFRAMEWORK,VERSION=V4.5.ASSEMBLYATTRIBUTES.CPP
D:\PROGRAM FILES (X86)\MICROSOFT VISUAL STUDIO 11.0\VC\BIN\1033\CLUI.DLL
C:\WINDOWS\GLOBALIZATION\SORTING\SORTDEFAULT.NLS
C:\WINDOWS\MICROSOFT.NET\FRAMEWORK\V2.0.50727\MSCORWKS.DLL
C:\WINDOWS\MICROSOFT.NET\FRAMEWORK\V4.0.30319\CLR.DLL
D:\PROGRAM FILES (X86)\MICROSOFT VISUAL STUDIO 11.0\VC\BIN\CL.EXE.CONFIG
C:\WINDOWS\SYSTEM32\TZRES.DLL
C:\WINDOWS\MICROSOFT.NET\FRAMEWORK\V4.0.30319\MSCORLIB.DLL
^C:\USERS\KIERRAN\SKYDRIVE\PROGRAMMING\C++\TETRIS\TETRIS\STDAFX.CPP
C:\PROGRAM FILES (X86)\MICROSOFT VISUAL STUDIO 11.0\VC\BIN\1033\CLUI.DLL
C:\WINDOWS\GLOBALIZATION\SORTING\SORTDEFAULT.NLS
C:\WINDOWS\MICROSOFT.NET\FRAMEWORK\V2.0.50727\MSCORWKS.DLL
C:\WINDOWS\MICROSOFT.NET\FRAMEWORK\V4.0.30319\CLR.DLL
C:\PROGRAM FILES (X86)\MICROSOFT VISUAL STUDIO 11.0\VC\BIN\CL.EXE.CONFIG
C:\WINDOWS\SYSTEM32\TZRES.DLL
C:\PROGRAM FILES (X86)\MICROSOFT VISUAL STUDIO 11.0\COMMON7\IDE\MSPDBSRV.EXE
C:\PROGRAM FILES (X86)\REFERENCE ASSEMBLIES\MICROSOFT\FRAMEWORK\.NETFRAMEWORK\V4.5\MSCORLIB.DLL
C:\PROGRAM FILES (X86)\REFERENCE ASSEMBLIES\MICROSOFT\FRAMEWORK\.NETFRAMEWORK\V4.5\SYSTEM.DATA.DLL
C:\PROGRAM FILES (X86)\REFERENCE ASSEMBLIES\MICROSOFT\FRAMEWORK\.NETFRAMEWORK\V4.5\SYSTEM.DLL
C:\PROGRAM FILES (X86)\REFERENCE ASSEMBLIES\MICROSOFT\FRAMEWORK\.NETFRAMEWORK\V4.5\SYSTEM.DRAWING.DLL
C:\PROGRAM FILES (X86)\REFERENCE ASSEMBLIES\MICROSOFT\FRAMEWORK\.NETFRAMEWORK\V4.5\SYSTEM.WINDOWS.FORMS.DLL
C:\PROGRAM FILES (X86)\REFERENCE ASSEMBLIES\MICROSOFT\FRAMEWORK\.NETFRAMEWORK\V4.5\SYSTEM.XML.DLL
C:\USERS\KIERRAN\SKYDRIVE\PROGRAMMING\C++\TETRIS\TETRIS\STDAFX.H
^C:\USERS\KIERRAN\SKYDRIVE\PROGRAMMING\C++\TETRIS\TETRIS\ASSEMBLYINFO.CPP
C:\USERS\KIERRAN\SKYDRIVE\PROGRAMMING\C++\TETRIS\TETRIS\DEBUG\TETRIS.PCH
C:\PROGRAM FILES (X86)\MICROSOFT VISUAL STUDIO 11.0\VC\BIN\CL.EXE.CONFIG
C:\PROGRAM FILES (X86)\REFERENCE ASSEMBLIES\MICROSOFT\FRAMEWORK\.NETFRAMEWORK\V4.5\MSCORLIB.DLL
C:\PROGRAM FILES (X86)\REFERENCE ASSEMBLIES\MICROSOFT\FRAMEWORK\.NETFRAMEWORK\V4.5\SYSTEM.DATA.DLL
C:\PROGRAM FILES (X86)\REFERENCE ASSEMBLIES\MICROSOFT\FRAMEWORK\.NETFRAMEWORK\V4.5\SYSTEM.DLL
C:\PROGRAM FILES (X86)\REFERENCE ASSEMBLIES\MICROSOFT\FRAMEWORK\.NETFRAMEWORK\V4.5\SYSTEM.DRAWING.DLL
C:\PROGRAM FILES (X86)\REFERENCE ASSEMBLIES\MICROSOFT\FRAMEWORK\.NETFRAMEWORK\V4.5\SYSTEM.WINDOWS.FORMS.DLL
C:\PROGRAM FILES (X86)\REFERENCE ASSEMBLIES\MICROSOFT\FRAMEWORK\.NETFRAMEWORK\V4.5\SYSTEM.XML.DLL
C:\USERS\KIERRAN\SKYDRIVE\PROGRAMMING\C++\TETRIS\TETRIS\DEBUG\STDAFX.OBJ
^C:\USERS\KIERRAN\SKYDRIVE\PROGRAMMING\C++\TETRIS\TETRIS\BLOCK.CPP
C:\USERS\KIERRAN\SKYDRIVE\PROGRAMMING\C++\TETRIS\TETRIS\DEBUG\TETRIS.PCH
C:\PROGRAM FILES (X86)\MICROSOFT VISUAL STUDIO 11.0\VC\BIN\CL.EXE.CONFIG
C:\PROGRAM FILES (X86)\REFERENCE ASSEMBLIES\MICROSOFT\FRAMEWORK\.NETFRAMEWORK\V4.5\MSCORLIB.DLL
C:\PROGRAM FILES (X86)\REFERENCE ASSEMBLIES\MICROSOFT\FRAMEWORK\.NETFRAMEWORK\V4.5\SYSTEM.DATA.DLL
C:\PROGRAM FILES (X86)\REFERENCE ASSEMBLIES\MICROSOFT\FRAMEWORK\.NETFRAMEWORK\V4.5\SYSTEM.DLL
C:\PROGRAM FILES (X86)\REFERENCE ASSEMBLIES\MICROSOFT\FRAMEWORK\.NETFRAMEWORK\V4.5\SYSTEM.DRAWING.DLL
C:\PROGRAM FILES (X86)\REFERENCE ASSEMBLIES\MICROSOFT\FRAMEWORK\.NETFRAMEWORK\V4.5\SYSTEM.WINDOWS.FORMS.DLL
C:\PROGRAM FILES (X86)\REFERENCE ASSEMBLIES\MICROSOFT\FRAMEWORK\.NETFRAMEWORK\V4.5\SYSTEM.XML.DLL
C:\USERS\KIERRAN\SKYDRIVE\PROGRAMMING\C++\TETRIS\TETRIS\DEBUG\STDAFX.OBJ
C:\USERS\KIERRAN\SKYDRIVE\PROGRAMMING\C++\TETRIS\TETRIS\BLOCK.H
C:\USERS\KIERRAN\SKYDRIVE\PROGRAMMING\C++\TETRIS\TETRIS\GRID.H
C:\USERS\KIERRAN\SKYDRIVE\PROGRAMMING\C++\TETRIS\TETRIS\CELL.H
^C:\USERS\KIERRAN\SKYDRIVE\PROGRAMMING\C++\TETRIS\TETRIS\CELL.CPP
C:\USERS\KIERRAN\SKYDRIVE\PROGRAMMING\C++\TETRIS\TETRIS\DEBUG\TETRIS.PCH
C:\PROGRAM FILES (X86)\MICROSOFT VISUAL STUDIO 11.0\VC\BIN\CL.EXE.CONFIG
C:\PROGRAM FILES (X86)\REFERENCE ASSEMBLIES\MICROSOFT\FRAMEWORK\.NETFRAMEWORK\V4.5\MSCORLIB.DLL
C:\PROGRAM FILES (X86)\REFERENCE ASSEMBLIES\MICROSOFT\FRAMEWORK\.NETFRAMEWORK\V4.5\SYSTEM.DATA.DLL
C:\PROGRAM FILES (X86)\REFERENCE ASSEMBLIES\MICROSOFT\FRAMEWORK\.NETFRAMEWORK\V4.5\SYSTEM.DLL
C:\PROGRAM FILES (X86)\REFERENCE ASSEMBLIES\MICROSOFT\FRAMEWORK\.NETFRAMEWORK\V4.5\SYSTEM.DRAWING.DLL
C:\PROGRAM FILES (X86)\REFERENCE ASSEMBLIES\MICROSOFT\FRAMEWORK\.NETFRAMEWORK\V4.5\SYSTEM.WINDOWS.FORMS.DLL
C:\PROGRAM FILES (X86)\REFERENCE ASSEMBLIES\MICROSOFT\FRAMEWORK\.NETFRAMEWORK\V4.5\SYSTEM.XML.DLL
C:\USERS\KIERRAN\SKYDRIVE\PROGRAMMING\C++\TETRIS\TETRIS\DEBUG\STDAFX.OBJ
C:\USERS\KIERRAN\SKYDRIVE\PROGRAMMING\C++\TETRIS\TETRIS\CELL.H
^C:\USERS\KIERRAN\SKYDRIVE\PROGRAMMING\C++\TETRIS\TETRIS\GRID.CPP
C:\USERS\KIERRAN\SKYDRIVE\PROGRAMMING\C++\TETRIS\TETRIS\DEBUG\TETRIS.PCH
C:\PROGRAM FILES (X86)\MICROSOFT VISUAL STUDIO 11.0\VC\BIN\CL.EXE.CONFIG
C:\PROGRAM FILES (X86)\REFERENCE ASSEMBLIES\MICROSOFT\FRAMEWORK\.NETFRAMEWORK\V4.5\MSCORLIB.DLL
C:\PROGRAM FILES (X86)\REFERENCE ASSEMBLIES\MICROSOFT\FRAMEWORK\.NETFRAMEWORK\V4.5\SYSTEM.DATA.DLL
C:\PROGRAM FILES (X86)\REFERENCE ASSEMBLIES\MICROSOFT\FRAMEWORK\.NETFRAMEWORK\V4.5\SYSTEM.DLL
C:\PROGRAM FILES (X86)\REFERENCE ASSEMBLIES\MICROSOFT\FRAMEWORK\.NETFRAMEWORK\V4.5\SYSTEM.DRAWING.DLL
C:\PROGRAM FILES (X86)\REFERENCE ASSEMBLIES\MICROSOFT\FRAMEWORK\.NETFRAMEWORK\V4.5\SYSTEM.WINDOWS.FORMS.DLL
C:\PROGRAM FILES (X86)\REFERENCE ASSEMBLIES\MICROSOFT\FRAMEWORK\.NETFRAMEWORK\V4.5\SYSTEM.XML.DLL
C:\USERS\KIERRAN\SKYDRIVE\PROGRAMMING\C++\TETRIS\TETRIS\DEBUG\STDAFX.OBJ
C:\USERS\KIERRAN\SKYDRIVE\PROGRAMMING\C++\TETRIS\TETRIS\GRID.H
C:\USERS\KIERRAN\SKYDRIVE\PROGRAMMING\C++\TETRIS\TETRIS\CELL.H
^C:\USERS\KIERRAN\SKYDRIVE\PROGRAMMING\C++\TETRIS\TETRIS\JBLOCK.CPP
C:\USERS\KIERRAN\SKYDRIVE\PROGRAMMING\C++\TETRIS\TETRIS\DEBUG\TETRIS.PCH
C:\PROGRAM FILES (X86)\MICROSOFT VISUAL STUDIO 11.0\VC\BIN\CL.EXE.CONFIG
C:\PROGRAM FILES (X86)\REFERENCE ASSEMBLIES\MICROSOFT\FRAMEWORK\.NETFRAMEWORK\V4.5\MSCORLIB.DLL
C:\PROGRAM FILES (X86)\REFERENCE ASSEMBLIES\MICROSOFT\FRAMEWORK\.NETFRAMEWORK\V4.5\SYSTEM.DATA.DLL
C:\PROGRAM FILES (X86)\REFERENCE ASSEMBLIES\MICROSOFT\FRAMEWORK\.NETFRAMEWORK\V4.5\SYSTEM.DLL
C:\PROGRAM FILES (X86)\REFERENCE ASSEMBLIES\MICROSOFT\FRAMEWORK\.NETFRAMEWORK\V4.5\SYSTEM.DRAWING.DLL
C:\PROGRAM FILES (X86)\REFERENCE ASSEMBLIES\MICROSOFT\FRAMEWORK\.NETFRAMEWORK\V4.5\SYSTEM.WINDOWS.FORMS.DLL
C:\PROGRAM FILES (X86)\REFERENCE ASSEMBLIES\MICROSOFT\FRAMEWORK\.NETFRAMEWORK\V4.5\SYSTEM.XML.DLL
C:\USERS\KIERRAN\SKYDRIVE\PROGRAMMING\C++\TETRIS\TETRIS\DEBUG\STDAFX.OBJ
C:\USERS\KIERRAN\SKYDRIVE\PROGRAMMING\C++\TETRIS\TETRIS\JBLOCK.H
C:\USERS\KIERRAN\SKYDRIVE\PROGRAMMING\C++\TETRIS\TETRIS\BLOCK.H
C:\USERS\KIERRAN\SKYDRIVE\PROGRAMMING\C++\TETRIS\TETRIS\GRID.H
C:\USERS\KIERRAN\SKYDRIVE\PROGRAMMING\C++\TETRIS\TETRIS\CELL.H
^C:\USERS\KIERRAN\SKYDRIVE\PROGRAMMING\C++\TETRIS\TETRIS\LBLOCK.CPP
C:\USERS\KIERRAN\SKYDRIVE\PROGRAMMING\C++\TETRIS\TETRIS\DEBUG\TETRIS.PCH
C:\PROGRAM FILES (X86)\MICROSOFT VISUAL STUDIO 11.0\VC\BIN\CL.EXE.CONFIG
C:\PROGRAM FILES (X86)\REFERENCE ASSEMBLIES\MICROSOFT\FRAMEWORK\.NETFRAMEWORK\V4.5\MSCORLIB.DLL
C:\PROGRAM FILES (X86)\REFERENCE ASSEMBLIES\MICROSOFT\FRAMEWORK\.NETFRAMEWORK\V4.5\SYSTEM.DATA.DLL
C:\PROGRAM FILES (X86)\REFERENCE ASSEMBLIES\MICROSOFT\FRAMEWORK\.NETFRAMEWORK\V4.5\SYSTEM.DLL
C:\PROGRAM FILES (X86)\REFERENCE ASSEMBLIES\MICROSOFT\FRAMEWORK\.NETFRAMEWORK\V4.5\SYSTEM.DRAWING.DLL
C:\PROGRAM FILES (X86)\REFERENCE ASSEMBLIES\MICROSOFT\FRAMEWORK\.NETFRAMEWORK\V4.5\SYSTEM.WINDOWS.FORMS.DLL
C:\PROGRAM FILES (X86)\REFERENCE ASSEMBLIES\MICROSOFT\FRAMEWORK\.NETFRAMEWORK\V4.5\SYSTEM.XML.DLL
C:\USERS\KIERRAN\SKYDRIVE\PROGRAMMING\C++\TETRIS\TETRIS\DEBUG\STDAFX.OBJ
C:\USERS\KIERRAN\SKYDRIVE\PROGRAMMING\C++\TETRIS\TETRIS\LBLOCK.H
C:\USERS\KIERRAN\SKYDRIVE\PROGRAMMING\C++\TETRIS\TETRIS\BLOCK.H
C:\USERS\KIERRAN\SKYDRIVE\PROGRAMMING\C++\TETRIS\TETRIS\GRID.H
C:\USERS\KIERRAN\SKYDRIVE\PROGRAMMING\C++\TETRIS\TETRIS\CELL.H
^C:\USERS\KIERRAN\SKYDRIVE\PROGRAMMING\C++\TETRIS\TETRIS\LONGBLOCK.CPP
C:\USERS\KIERRAN\SKYDRIVE\PROGRAMMING\C++\TETRIS\TETRIS\DEBUG\TETRIS.PCH
C:\PROGRAM FILES (X86)\MICROSOFT VISUAL STUDIO 11.0\VC\BIN\CL.EXE.CONFIG
C:\PROGRAM FILES (X86)\REFERENCE ASSEMBLIES\MICROSOFT\FRAMEWORK\.NETFRAMEWORK\V4.5\MSCORLIB.DLL
C:\PROGRAM FILES (X86)\REFERENCE ASSEMBLIES\MICROSOFT\FRAMEWORK\.NETFRAMEWORK\V4.5\SYSTEM.DATA.DLL
C:\PROGRAM FILES (X86)\REFERENCE ASSEMBLIES\MICROSOFT\FRAMEWORK\.NETFRAMEWORK\V4.5\SYSTEM.DLL
C:\PROGRAM FILES (X86)\REFERENCE ASSEMBLIES\MICROSOFT\FRAMEWORK\.NETFRAMEWORK\V4.5\SYSTEM.DRAWING.DLL
C:\PROGRAM FILES (X86)\REFERENCE ASSEMBLIES\MICROSOFT\FRAMEWORK\.NETFRAMEWORK\V4.5\SYSTEM.WINDOWS.FORMS.DLL
C:\PROGRAM FILES (X86)\REFERENCE ASSEMBLIES\MICROSOFT\FRAMEWORK\.NETFRAMEWORK\V4.5\SYSTEM.XML.DLL
C:\USERS\KIERRAN\SKYDRIVE\PROGRAMMING\C++\TETRIS\TETRIS\DEBUG\STDAFX.OBJ
C:\USERS\KIERRAN\SKYDRIVE\PROGRAMMING\C++\TETRIS\TETRIS\LONGBLOCK.H
C:\USERS\KIERRAN\SKYDRIVE\PROGRAMMING\C++\TETRIS\TETRIS\BLOCK.H
C:\USERS\KIERRAN\SKYDRIVE\PROGRAMMING\C++\TETRIS\TETRIS\GRID.H
C:\USERS\KIERRAN\SKYDRIVE\PROGRAMMING\C++\TETRIS\TETRIS\CELL.H
^C:\USERS\KIERRAN\SKYDRIVE\PROGRAMMING\C++\TETRIS\TETRIS\SBLOCK.CPP
C:\USERS\KIERRAN\SKYDRIVE\PROGRAMMING\C++\TETRIS\TETRIS\DEBUG\TETRIS.PCH
C:\PROGRAM FILES (X86)\MICROSOFT VISUAL STUDIO 11.0\VC\BIN\CL.EXE.CONFIG
C:\PROGRAM FILES (X86)\REFERENCE ASSEMBLIES\MICROSOFT\FRAMEWORK\.NETFRAMEWORK\V4.5\MSCORLIB.DLL
C:\PROGRAM FILES (X86)\REFERENCE ASSEMBLIES\MICROSOFT\FRAMEWORK\.NETFRAMEWORK\V4.5\SYSTEM.DATA.DLL
C:\PROGRAM FILES (X86)\REFERENCE ASSEMBLIES\MICROSOFT\FRAMEWORK\.NETFRAMEWORK\V4.5\SYSTEM.DLL
C:\PROGRAM FILES (X86)\REFERENCE ASSEMBLIES\MICROSOFT\FRAMEWORK\.NETFRAMEWORK\V4.5\SYSTEM.DRAWING.DLL
C:\PROGRAM FILES (X86)\REFERENCE ASSEMBLIES\MICROSOFT\FRAMEWORK\.NETFRAMEWORK\V4.5\SYSTEM.WINDOWS.FORMS.DLL
C:\PROGRAM FILES (X86)\REFERENCE ASSEMBLIES\MICROSOFT\FRAMEWORK\.NETFRAMEWORK\V4.5\SYSTEM.XML.DLL
C:\USERS\KIERRAN\SKYDRIVE\PROGRAMMING\C++\TETRIS\TETRIS\DEBUG\STDAFX.OBJ
C:\USERS\KIERRAN\SKYDRIVE\PROGRAMMING\C++\TETRIS\TETRIS\SBLOCK.H
C:\USERS\KIERRAN\SKYDRIVE\PROGRAMMING\C++\TETRIS\TETRIS\BLOCK.H
C:\USERS\KIERRAN\SKYDRIVE\PROGRAMMING\C++\TETRIS\TETRIS\GRID.H
C:\USERS\KIERRAN\SKYDRIVE\PROGRAMMING\C++\TETRIS\TETRIS\CELL.H
^C:\USERS\KIERRAN\SKYDRIVE\PROGRAMMING\C++\TETRIS\TETRIS\SQUAREBLOCK.CPP
C:\USERS\KIERRAN\SKYDRIVE\PROGRAMMING\C++\TETRIS\TETRIS\DEBUG\TETRIS.PCH
C:\PROGRAM FILES (X86)\MICROSOFT VISUAL STUDIO 11.0\VC\BIN\CL.EXE.CONFIG
C:\PROGRAM FILES (X86)\REFERENCE ASSEMBLIES\MICROSOFT\FRAMEWORK\.NETFRAMEWORK\V4.5\MSCORLIB.DLL
C:\PROGRAM FILES (X86)\REFERENCE ASSEMBLIES\MICROSOFT\FRAMEWORK\.NETFRAMEWORK\V4.5\SYSTEM.DATA.DLL
C:\PROGRAM FILES (X86)\REFERENCE ASSEMBLIES\MICROSOFT\FRAMEWORK\.NETFRAMEWORK\V4.5\SYSTEM.DLL
C:\PROGRAM FILES (X86)\REFERENCE ASSEMBLIES\MICROSOFT\FRAMEWORK\.NETFRAMEWORK\V4.5\SYSTEM.DRAWING.DLL
C:\PROGRAM FILES (X86)\REFERENCE ASSEMBLIES\MICROSOFT\FRAMEWORK\.NETFRAMEWORK\V4.5\SYSTEM.WINDOWS.FORMS.DLL
C:\PROGRAM FILES (X86)\REFERENCE ASSEMBLIES\MICROSOFT\FRAMEWORK\.NETFRAMEWORK\V4.5\SYSTEM.XML.DLL
C:\USERS\KIERRAN\SKYDRIVE\PROGRAMMING\C++\TETRIS\TETRIS\DEBUG\STDAFX.OBJ
C:\USERS\KIERRAN\SKYDRIVE\PROGRAMMING\C++\TETRIS\TETRIS\SQUAREBLOCK.H
C:\USERS\KIERRAN\SKYDRIVE\PROGRAMMING\C++\TETRIS\TETRIS\BLOCK.H
C:\USERS\KIERRAN\SKYDRIVE\PROGRAMMING\C++\TETRIS\TETRIS\GRID.H
C:\USERS\KIERRAN\SKYDRIVE\PROGRAMMING\C++\TETRIS\TETRIS\CELL.H
^C:\USERS\KIERRAN\SKYDRIVE\PROGRAMMING\C++\TETRIS\TETRIS\TBLOCK.CPP
C:\USERS\KIERRAN\SKYDRIVE\PROGRAMMING\C++\TETRIS\TETRIS\DEBUG\TETRIS.PCH
C:\PROGRAM FILES (X86)\MICROSOFT VISUAL STUDIO 11.0\VC\BIN\CL.EXE.CONFIG
C:\PROGRAM FILES (X86)\REFERENCE ASSEMBLIES\MICROSOFT\FRAMEWORK\.NETFRAMEWORK\V4.5\MSCORLIB.DLL
C:\PROGRAM FILES (X86)\REFERENCE ASSEMBLIES\MICROSOFT\FRAMEWORK\.NETFRAMEWORK\V4.5\SYSTEM.DATA.DLL
C:\PROGRAM FILES (X86)\REFERENCE ASSEMBLIES\MICROSOFT\FRAMEWORK\.NETFRAMEWORK\V4.5\SYSTEM.DLL
C:\PROGRAM FILES (X86)\REFERENCE ASSEMBLIES\MICROSOFT\FRAMEWORK\.NETFRAMEWORK\V4.5\SYSTEM.DRAWING.DLL
C:\PROGRAM FILES (X86)\REFERENCE ASSEMBLIES\MICROSOFT\FRAMEWORK\.NETFRAMEWORK\V4.5\SYSTEM.WINDOWS.FORMS.DLL
C:\PROGRAM FILES (X86)\REFERENCE ASSEMBLIES\MICROSOFT\FRAMEWORK\.NETFRAMEWORK\V4.5\SYSTEM.XML.DLL
C:\USERS\KIERRAN\SKYDRIVE\PROGRAMMING\C++\TETRIS\TETRIS\DEBUG\STDAFX.OBJ
C:\USERS\KIERRAN\SKYDRIVE\PROGRAMMING\C++\TETRIS\TETRIS\TBLOCK.H
C:\USERS\KIERRAN\SKYDRIVE\PROGRAMMING\C++\TETRIS\TETRIS\BLOCK.H
C:\USERS\KIERRAN\SKYDRIVE\PROGRAMMING\C++\TETRIS\TETRIS\GRID.H
C:\USERS\KIERRAN\SKYDRIVE\PROGRAMMING\C++\TETRIS\TETRIS\CELL.H
^C:\USERS\KIERRAN\SKYDRIVE\PROGRAMMING\C++\TETRIS\TETRIS\TETRIS.CPP
C:\USERS\KIERRAN\SKYDRIVE\PROGRAMMING\C++\TETRIS\TETRIS\DEBUG\TETRIS.PCH
C:\PROGRAM FILES (X86)\MICROSOFT VISUAL STUDIO 11.0\VC\BIN\CL.EXE.CONFIG
C:\PROGRAM FILES (X86)\REFERENCE ASSEMBLIES\MICROSOFT\FRAMEWORK\.NETFRAMEWORK\V4.5\MSCORLIB.DLL
C:\PROGRAM FILES (X86)\REFERENCE ASSEMBLIES\MICROSOFT\FRAMEWORK\.NETFRAMEWORK\V4.5\SYSTEM.DATA.DLL
C:\PROGRAM FILES (X86)\REFERENCE ASSEMBLIES\MICROSOFT\FRAMEWORK\.NETFRAMEWORK\V4.5\SYSTEM.DLL
C:\PROGRAM FILES (X86)\REFERENCE ASSEMBLIES\MICROSOFT\FRAMEWORK\.NETFRAMEWORK\V4.5\SYSTEM.DRAWING.DLL
C:\PROGRAM FILES (X86)\REFERENCE ASSEMBLIES\MICROSOFT\FRAMEWORK\.NETFRAMEWORK\V4.5\SYSTEM.WINDOWS.FORMS.DLL
C:\PROGRAM FILES (X86)\REFERENCE ASSEMBLIES\MICROSOFT\FRAMEWORK\.NETFRAMEWORK\V4.5\SYSTEM.XML.DLL
C:\USERS\KIERRAN\SKYDRIVE\PROGRAMMING\C++\TETRIS\TETRIS\DEBUG\STDAFX.OBJ
C:\USERS\KIERRAN\SKYDRIVE\PROGRAMMING\C++\TETRIS\TETRIS\FORM1.H
C:\USERS\KIERRAN\SKYDRIVE\PROGRAMMING\C++\TETRIS\TETRIS\TETRISGAME.H
C:\USERS\KIERRAN\SKYDRIVE\PROGRAMMING\C++\TETRIS\TETRIS\BLOCK.H
C:\USERS\KIERRAN\SKYDRIVE\PROGRAMMING\C++\TETRIS\TETRIS\GRID.H
C:\USERS\KIERRAN\SKYDRIVE\PROGRAMMING\C++\TETRIS\TETRIS\CELL.H
C:\USERS\KIERRAN\SKYDRIVE\PROGRAMMING\C++\TETRIS\TETRIS\SQUAREBLOCK.H
C:\USERS\KIERRAN\SKYDRIVE\PROGRAMMING\C++\TETRIS\TETRIS\LONGBLOCK.H
C:\USERS\KIERRAN\SKYDRIVE\PROGRAMMING\C++\TETRIS\TETRIS\TBLOCK.H
C:\USERS\KIERRAN\SKYDRIVE\PROGRAMMING\C++\TETRIS\TETRIS\ZBLOCK.H
C:\USERS\KIERRAN\SKYDRIVE\PROGRAMMING\C++\TETRIS\TETRIS\SBLOCK.H
C:\USERS\KIERRAN\SKYDRIVE\PROGRAMMING\C++\TETRIS\TETRIS\LBLOCK.H
C:\USERS\KIERRAN\SKYDRIVE\PROGRAMMING\C++\TETRIS\TETRIS\JBLOCK.H
^C:\USERS\KIERRAN\SKYDRIVE\PROGRAMMING\C++\TETRIS\TETRIS\TETRISGAME.CPP
C:\USERS\KIERRAN\SKYDRIVE\PROGRAMMING\C++\TETRIS\TETRIS\DEBUG\TETRIS.PCH
C:\PROGRAM FILES (X86)\MICROSOFT VISUAL STUDIO 11.0\VC\BIN\CL.EXE.CONFIG
C:\PROGRAM FILES (X86)\REFERENCE ASSEMBLIES\MICROSOFT\FRAMEWORK\.NETFRAMEWORK\V4.5\MSCORLIB.DLL
C:\PROGRAM FILES (X86)\REFERENCE ASSEMBLIES\MICROSOFT\FRAMEWORK\.NETFRAMEWORK\V4.5\SYSTEM.DATA.DLL
C:\PROGRAM FILES (X86)\REFERENCE ASSEMBLIES\MICROSOFT\FRAMEWORK\.NETFRAMEWORK\V4.5\SYSTEM.DLL
C:\PROGRAM FILES (X86)\REFERENCE ASSEMBLIES\MICROSOFT\FRAMEWORK\.NETFRAMEWORK\V4.5\SYSTEM.DRAWING.DLL
C:\PROGRAM FILES (X86)\REFERENCE ASSEMBLIES\MICROSOFT\FRAMEWORK\.NETFRAMEWORK\V4.5\SYSTEM.WINDOWS.FORMS.DLL
C:\PROGRAM FILES (X86)\REFERENCE ASSEMBLIES\MICROSOFT\FRAMEWORK\.NETFRAMEWORK\V4.5\SYSTEM.XML.DLL
C:\USERS\KIERRAN\SKYDRIVE\PROGRAMMING\C++\TETRIS\TETRIS\DEBUG\STDAFX.OBJ
C:\USERS\KIERRAN\SKYDRIVE\PROGRAMMING\C++\TETRIS\TETRIS\TETRISGAME.H
C:\USERS\KIERRAN\SKYDRIVE\PROGRAMMING\C++\TETRIS\TETRIS\BLOCK.H
C:\USERS\KIERRAN\SKYDRIVE\PROGRAMMING\C++\TETRIS\TETRIS\GRID.H
C:\USERS\KIERRAN\SKYDRIVE\PROGRAMMING\C++\TETRIS\TETRIS\CELL.H
C:\USERS\KIERRAN\SKYDRIVE\PROGRAMMING\C++\TETRIS\TETRIS\SQUAREBLOCK.H
C:\USERS\KIERRAN\SKYDRIVE\PROGRAMMING\C++\TETRIS\TETRIS\LONGBLOCK.H
C:\USERS\KIERRAN\SKYDRIVE\PROGRAMMING\C++\TETRIS\TETRIS\TBLOCK.H
C:\USERS\KIERRAN\SKYDRIVE\PROGRAMMING\C++\TETRIS\TETRIS\ZBLOCK.H
C:\USERS\KIERRAN\SKYDRIVE\PROGRAMMING\C++\TETRIS\TETRIS\SBLOCK.H
C:\USERS\KIERRAN\SKYDRIVE\PROGRAMMING\C++\TETRIS\TETRIS\LBLOCK.H
C:\USERS\KIERRAN\SKYDRIVE\PROGRAMMING\C++\TETRIS\TETRIS\JBLOCK.H
^C:\USERS\KIERRAN\SKYDRIVE\PROGRAMMING\C++\TETRIS\TETRIS\ZBLOCK.CPP
C:\USERS\KIERRAN\SKYDRIVE\PROGRAMMING\C++\TETRIS\TETRIS\DEBUG\TETRIS.PCH
C:\PROGRAM FILES (X86)\MICROSOFT VISUAL STUDIO 11.0\VC\BIN\CL.EXE.CONFIG
C:\PROGRAM FILES (X86)\REFERENCE ASSEMBLIES\MICROSOFT\FRAMEWORK\.NETFRAMEWORK\V4.5\MSCORLIB.DLL
C:\PROGRAM FILES (X86)\REFERENCE ASSEMBLIES\MICROSOFT\FRAMEWORK\.NETFRAMEWORK\V4.5\SYSTEM.DATA.DLL
C:\PROGRAM FILES (X86)\REFERENCE ASSEMBLIES\MICROSOFT\FRAMEWORK\.NETFRAMEWORK\V4.5\SYSTEM.DLL
C:\PROGRAM FILES (X86)\REFERENCE ASSEMBLIES\MICROSOFT\FRAMEWORK\.NETFRAMEWORK\V4.5\SYSTEM.DRAWING.DLL
C:\PROGRAM FILES (X86)\REFERENCE ASSEMBLIES\MICROSOFT\FRAMEWORK\.NETFRAMEWORK\V4.5\SYSTEM.WINDOWS.FORMS.DLL
C:\PROGRAM FILES (X86)\REFERENCE ASSEMBLIES\MICROSOFT\FRAMEWORK\.NETFRAMEWORK\V4.5\SYSTEM.XML.DLL
C:\USERS\KIERRAN\SKYDRIVE\PROGRAMMING\C++\TETRIS\TETRIS\DEBUG\STDAFX.OBJ
C:\USERS\KIERRAN\SKYDRIVE\PROGRAMMING\C++\TETRIS\TETRIS\ZBLOCK.H
C:\USERS\KIERRAN\SKYDRIVE\PROGRAMMING\C++\TETRIS\TETRIS\BLOCK.H
C:\USERS\KIERRAN\SKYDRIVE\PROGRAMMING\C++\TETRIS\TETRIS\GRID.H
C:\USERS\KIERRAN\SKYDRIVE\PROGRAMMING\C++\TETRIS\TETRIS\CELL.H
^C:\USERS\KIERRAN\APPDATA\LOCAL\TEMP\.NETFRAMEWORK,VERSION=V4.5.ASSEMBLYATTRIBUTES.CPP
C:\PROGRAM FILES (X86)\MICROSOFT VISUAL STUDIO 11.0\VC\BIN\1033\CLUI.DLL
C:\WINDOWS\GLOBALIZATION\SORTING\SORTDEFAULT.NLS
C:\WINDOWS\MICROSOFT.NET\FRAMEWORK\V2.0.50727\MSCORWKS.DLL
C:\WINDOWS\MICROSOFT.NET\FRAMEWORK\V4.0.30319\CLR.DLL
C:\PROGRAM FILES (X86)\MICROSOFT VISUAL STUDIO 11.0\VC\BIN\CL.EXE.CONFIG
C:\WINDOWS\SYSTEM32\TZRES.DLL
C:\WINDOWS\MICROSOFT.NET\FRAMEWORK\V4.0.30319\MSCORLIB.DLL
