^D:\USERS\KIERRAN\SKYDRIVE\PROGRAMMING\C++\TETRIS\TETRIS\STDAFX.CPP
D:\USERS\KIERRAN\SKYDRIVE\PROGRAMMING\C++\TETRIS\TETRIS\DEBUG\TETRIS.PCH
D:\USERS\KIERRAN\SKYDRIVE\PROGRAMMING\C++\TETRIS\TETRIS\DEBUG\STDAFX.OBJ
D:\USERS\KIERRAN\SKYDRIVE\PROGRAMMING\C++\TETRIS\TETRIS\DEBUG\VC110.PDB
^D:\USERS\KIERRAN\SKYDRIVE\PROGRAMMING\C++\TETRIS\TETRIS\ASSEMBLYINFO.CPP|D:\USERS\KIERRAN\SKYDRIVE\PROGRAMMING\C++\TETRIS\TETRIS\BLOCK.CPP|D:\USERS\KIERRAN\SKYDRIVE\PROGRAMMING\C++\TETRIS\TETRIS\CELL.CPP|D:\USERS\KIERRAN\SKYDRIVE\PROGRAMMING\C++\TETRIS\TETRIS\GRID.CPP|D:\USERS\KIERRAN\SKYDRIVE\PROGRAMMING\C++\TETRIS\TETRIS\JBLOCK.CPP|D:\USERS\KIERRAN\SKYDRIVE\PROGRAMMING\C++\TETRIS\TETRIS\LBLOCK.CPP|D:\USERS\KIERRAN\SKYDRIVE\PROGRAMMING\C++\TETRIS\TETRIS\LONGBLOCK.CPP|D:\USERS\KIERRAN\SKYDRIVE\PROGRAMMING\C++\TETRIS\TETRIS\SBLOCK.CPP|D:\USERS\KIERRAN\SKYDRIVE\PROGRAMMING\C++\TETRIS\TETRIS\SQUAREBLOCK.CPP|D:\USERS\KIERRAN\SKYDRIVE\PROGRAMMING\C++\TETRIS\TETRIS\TBLOCK.CPP|D:\USERS\KIERRAN\SKYDRIVE\PROGRAMMING\C++\TETRIS\TETRIS\TETRIS.CPP|D:\USERS\KIERRAN\SKYDRIVE\PROGRAMMING\C++\TETRIS\TETRIS\TETRISGAME.CPP|D:\USERS\KIERRAN\SKYDRIVE\PROGRAMMING\C++\TETRIS\TETRIS\ZBLOCK.CPP
D:\USERS\KIERRAN\SKYDRIVE\PROGRAMMING\C++\TETRIS\TETRIS\DEBUG\ZBLOCK.OBJ
D:\USERS\KIERRAN\SKYDRIVE\PROGRAMMING\C++\TETRIS\TETRIS\DEBUG\TETRISGAME.OBJ
D:\USERS\KIERRAN\SKYDRIVE\PROGRAMMING\C++\TETRIS\TETRIS\DEBUG\TETRIS.OBJ
D:\USERS\KIERRAN\SKYDRIVE\PROGRAMMING\C++\TETRIS\TETRIS\DEBUG\TBLOCK.OBJ
D:\USERS\KIERRAN\SKYDRIVE\PROGRAMMING\C++\TETRIS\TETRIS\DEBUG\SQUAREBLOCK.OBJ
D:\USERS\KIERRAN\SKYDRIVE\PROGRAMMING\C++\TETRIS\TETRIS\DEBUG\SBLOCK.OBJ
D:\USERS\KIERRAN\SKYDRIVE\PROGRAMMING\C++\TETRIS\TETRIS\DEBUG\LONGBLOCK.OBJ
D:\USERS\KIERRAN\SKYDRIVE\PROGRAMMING\C++\TETRIS\TETRIS\DEBUG\LBLOCK.OBJ
D:\USERS\KIERRAN\SKYDRIVE\PROGRAMMING\C++\TETRIS\TETRIS\DEBUG\JBLOCK.OBJ
D:\USERS\KIERRAN\SKYDRIVE\PROGRAMMING\C++\TETRIS\TETRIS\DEBUG\GRID.OBJ
D:\USERS\KIERRAN\SKYDRIVE\PROGRAMMING\C++\TETRIS\TETRIS\DEBUG\CELL.OBJ
D:\USERS\KIERRAN\SKYDRIVE\PROGRAMMING\C++\TETRIS\TETRIS\DEBUG\BLOCK.OBJ
D:\USERS\KIERRAN\SKYDRIVE\PROGRAMMING\C++\TETRIS\TETRIS\DEBUG\ASSEMBLYINFO.OBJ
^D:\USERS\KIERRAN\SKYDRIVE\PROGRAMMING\C++\TETRIS\TETRIS\ASSEMBLYINFO.CPP
D:\USERS\KIERRAN\SKYDRIVE\PROGRAMMING\C++\TETRIS\TETRIS\DEBUG\VC110.PDB
^D:\USERS\KIERRAN\SKYDRIVE\PROGRAMMING\C++\TETRIS\TETRIS\BLOCK.CPP
D:\USERS\KIERRAN\SKYDRIVE\PROGRAMMING\C++\TETRIS\TETRIS\DEBUG\VC110.PDB
^D:\USERS\KIERRAN\SKYDRIVE\PROGRAMMING\C++\TETRIS\TETRIS\CELL.CPP
D:\USERS\KIERRAN\SKYDRIVE\PROGRAMMING\C++\TETRIS\TETRIS\DEBUG\VC110.PDB
^D:\USERS\KIERRAN\SKYDRIVE\PROGRAMMING\C++\TETRIS\TETRIS\GRID.CPP
D:\USERS\KIERRAN\SKYDRIVE\PROGRAMMING\C++\TETRIS\TETRIS\DEBUG\VC110.PDB
^D:\USERS\KIERRAN\SKYDRIVE\PROGRAMMING\C++\TETRIS\TETRIS\JBLOCK.CPP
D:\USERS\KIERRAN\SKYDRIVE\PROGRAMMING\C++\TETRIS\TETRIS\DEBUG\VC110.PDB
^D:\USERS\KIERRAN\SKYDRIVE\PROGRAMMING\C++\TETRIS\TETRIS\LBLOCK.CPP
D:\USERS\KIERRAN\SKYDRIVE\PROGRAMMING\C++\TETRIS\TETRIS\DEBUG\VC110.PDB
^D:\USERS\KIERRAN\SKYDRIVE\PROGRAMMING\C++\TETRIS\TETRIS\LONGBLOCK.CPP
D:\USERS\KIERRAN\SKYDRIVE\PROGRAMMING\C++\TETRIS\TETRIS\DEBUG\VC110.PDB
^D:\USERS\KIERRAN\SKYDRIVE\PROGRAMMING\C++\TETRIS\TETRIS\SBLOCK.CPP
D:\USERS\KIERRAN\SKYDRIVE\PROGRAMMING\C++\TETRIS\TETRIS\DEBUG\VC110.PDB
^D:\USERS\KIERRAN\SKYDRIVE\PROGRAMMING\C++\TETRIS\TETRIS\SQUAREBLOCK.CPP
D:\USERS\KIERRAN\SKYDRIVE\PROGRAMMING\C++\TETRIS\TETRIS\DEBUG\VC110.PDB
^D:\USERS\KIERRAN\SKYDRIVE\PROGRAMMING\C++\TETRIS\TETRIS\TBLOCK.CPP
D:\USERS\KIERRAN\SKYDRIVE\PROGRAMMING\C++\TETRIS\TETRIS\DEBUG\VC110.PDB
^D:\USERS\KIERRAN\SKYDRIVE\PROGRAMMING\C++\TETRIS\TETRIS\TETRIS.CPP
D:\USERS\KIERRAN\SKYDRIVE\PROGRAMMING\C++\TETRIS\TETRIS\DEBUG\VC110.PDB
^D:\USERS\KIERRAN\SKYDRIVE\PROGRAMMING\C++\TETRIS\TETRIS\TETRISGAME.CPP
D:\USERS\KIERRAN\SKYDRIVE\PROGRAMMING\C++\TETRIS\TETRIS\DEBUG\VC110.PDB
^D:\USERS\KIERRAN\SKYDRIVE\PROGRAMMING\C++\TETRIS\TETRIS\ZBLOCK.CPP
D:\USERS\KIERRAN\SKYDRIVE\PROGRAMMING\C++\TETRIS\TETRIS\DEBUG\VC110.PDB
^D:\USERS\KIERRAN\APPDATA\LOCAL\TEMP\.NETFRAMEWORK,VERSION=V4.5.ASSEMBLYATTRIBUTES.CPP
D:\USERS\KIERRAN\SKYDRIVE\PROGRAMMING\C++\TETRIS\TETRIS\DEBUG\.NETFRAMEWORK,VERSION=V4.5.ASSEMBLYATTRIBUTES.OBJ
D:\USERS\KIERRAN\SKYDRIVE\PROGRAMMING\C++\TETRIS\TETRIS\DEBUG\VC110.PDB
^C:\USERS\KIERRAN\SKYDRIVE\PROGRAMMING\C++\TETRIS\TETRIS\STDAFX.CPP
C:\USERS\KIERRAN\SKYDRIVE\PROGRAMMING\C++\TETRIS\TETRIS\DEBUG\TETRIS.PCH
C:\USERS\KIERRAN\SKYDRIVE\PROGRAMMING\C++\TETRIS\TETRIS\DEBUG\STDAFX.OBJ
C:\USERS\KIERRAN\SKYDRIVE\PROGRAMMING\C++\TETRIS\TETRIS\DEBUG\VC110.PDB
^C:\USERS\KIERRAN\SKYDRIVE\PROGRAMMING\C++\TETRIS\TETRIS\ASSEMBLYINFO.CPP|C:\USERS\KIERRAN\SKYDRIVE\PROGRAMMING\C++\TETRIS\TETRIS\BLOCK.CPP|C:\USERS\KIERRAN\SKYDRIVE\PROGRAMMING\C++\TETRIS\TETRIS\CELL.CPP|C:\USERS\KIERRAN\SKYDRIVE\PROGRAMMING\C++\TETRIS\TETRIS\GRID.CPP|C:\USERS\KIERRAN\SKYDRIVE\PROGRAMMING\C++\TETRIS\TETRIS\JBLOCK.CPP|C:\USERS\KIERRAN\SKYDRIVE\PROGRAMMING\C++\TETRIS\TETRIS\LBLOCK.CPP|C:\USERS\KIERRAN\SKYDRIVE\PROGRAMMING\C++\TETRIS\TETRIS\LONGBLOCK.CPP|C:\USERS\KIERRAN\SKYDRIVE\PROGRAMMING\C++\TETRIS\TETRIS\SBLOCK.CPP|C:\USERS\KIERRAN\SKYDRIVE\PROGRAMMING\C++\TETRIS\TETRIS\SQUAREBLOCK.CPP|C:\USERS\KIERRAN\SKYDRIVE\PROGRAMMING\C++\TETRIS\TETRIS\TBLOCK.CPP|C:\USERS\KIERRAN\SKYDRIVE\PROGRAMMING\C++\TETRIS\TETRIS\TETRIS.CPP|C:\USERS\KIERRAN\SKYDRIVE\PROGRAMMING\C++\TETRIS\TETRIS\TETRISGAME.CPP|C:\USERS\KIERRAN\SKYDRIVE\PROGRAMMING\C++\TETRIS\TETRIS\ZBLOCK.CPP
C:\USERS\KIERRAN\SKYDRIVE\PROGRAMMING\C++\TETRIS\TETRIS\DEBUG\ZBLOCK.OBJ
C:\USERS\KIERRAN\SKYDRIVE\PROGRAMMING\C++\TETRIS\TETRIS\DEBUG\TETRISGAME.OBJ
C:\USERS\KIERRAN\SKYDRIVE\PROGRAMMING\C++\TETRIS\TETRIS\DEBUG\TETRIS.OBJ
C:\USERS\KIERRAN\SKYDRIVE\PROGRAMMING\C++\TETRIS\TETRIS\DEBUG\TBLOCK.OBJ
C:\USERS\KIERRAN\SKYDRIVE\PROGRAMMING\C++\TETRIS\TETRIS\DEBUG\SQUAREBLOCK.OBJ
C:\USERS\KIERRAN\SKYDRIVE\PROGRAMMING\C++\TETRIS\TETRIS\DEBUG\SBLOCK.OBJ
C:\USERS\KIERRAN\SKYDRIVE\PROGRAMMING\C++\TETRIS\TETRIS\DEBUG\LONGBLOCK.OBJ
C:\USERS\KIERRAN\SKYDRIVE\PROGRAMMING\C++\TETRIS\TETRIS\DEBUG\LBLOCK.OBJ
C:\USERS\KIERRAN\SKYDRIVE\PROGRAMMING\C++\TETRIS\TETRIS\DEBUG\JBLOCK.OBJ
C:\USERS\KIERRAN\SKYDRIVE\PROGRAMMING\C++\TETRIS\TETRIS\DEBUG\GRID.OBJ
C:\USERS\KIERRAN\SKYDRIVE\PROGRAMMING\C++\TETRIS\TETRIS\DEBUG\CELL.OBJ
C:\USERS\KIERRAN\SKYDRIVE\PROGRAMMING\C++\TETRIS\TETRIS\DEBUG\BLOCK.OBJ
C:\USERS\KIERRAN\SKYDRIVE\PROGRAMMING\C++\TETRIS\TETRIS\DEBUG\ASSEMBLYINFO.OBJ
^C:\USERS\KIERRAN\SKYDRIVE\PROGRAMMING\C++\TETRIS\TETRIS\ASSEMBLYINFO.CPP
C:\USERS\KIERRAN\SKYDRIVE\PROGRAMMING\C++\TETRIS\TETRIS\DEBUG\VC110.PDB
^C:\USERS\KIERRAN\SKYDRIVE\PROGRAMMING\C++\TETRIS\TETRIS\BLOCK.CPP
C:\USERS\KIERRAN\SKYDRIVE\PROGRAMMING\C++\TETRIS\TETRIS\DEBUG\VC110.PDB
^C:\USERS\KIERRAN\SKYDRIVE\PROGRAMMING\C++\TETRIS\TETRIS\CELL.CPP
C:\USERS\KIERRAN\SKYDRIVE\PROGRAMMING\C++\TETRIS\TETRIS\DEBUG\VC110.PDB
^C:\USERS\KIERRAN\SKYDRIVE\PROGRAMMING\C++\TETRIS\TETRIS\GRID.CPP
C:\USERS\KIERRAN\SKYDRIVE\PROGRAMMING\C++\TETRIS\TETRIS\DEBUG\VC110.PDB
^C:\USERS\KIERRAN\SKYDRIVE\PROGRAMMING\C++\TETRIS\TETRIS\JBLOCK.CPP
C:\USERS\KIERRAN\SKYDRIVE\PROGRAMMING\C++\TETRIS\TETRIS\DEBUG\VC110.PDB
^C:\USERS\KIERRAN\SKYDRIVE\PROGRAMMING\C++\TETRIS\TETRIS\LBLOCK.CPP
C:\USERS\KIERRAN\SKYDRIVE\PROGRAMMING\C++\TETRIS\TETRIS\DEBUG\VC110.PDB
^C:\USERS\KIERRAN\SKYDRIVE\PROGRAMMING\C++\TETRIS\TETRIS\LONGBLOCK.CPP
C:\USERS\KIERRAN\SKYDRIVE\PROGRAMMING\C++\TETRIS\TETRIS\DEBUG\VC110.PDB
^C:\USERS\KIERRAN\SKYDRIVE\PROGRAMMING\C++\TETRIS\TETRIS\SBLOCK.CPP
C:\USERS\KIERRAN\SKYDRIVE\PROGRAMMING\C++\TETRIS\TETRIS\DEBUG\VC110.PDB
^C:\USERS\KIERRAN\SKYDRIVE\PROGRAMMING\C++\TETRIS\TETRIS\SQUAREBLOCK.CPP
C:\USERS\KIERRAN\SKYDRIVE\PROGRAMMING\C++\TETRIS\TETRIS\DEBUG\VC110.PDB
^C:\USERS\KIERRAN\SKYDRIVE\PROGRAMMING\C++\TETRIS\TETRIS\TBLOCK.CPP
C:\USERS\KIERRAN\SKYDRIVE\PROGRAMMING\C++\TETRIS\TETRIS\DEBUG\VC110.PDB
^C:\USERS\KIERRAN\SKYDRIVE\PROGRAMMING\C++\TETRIS\TETRIS\TETRIS.CPP
C:\USERS\KIERRAN\SKYDRIVE\PROGRAMMING\C++\TETRIS\TETRIS\DEBUG\VC110.PDB
^C:\USERS\KIERRAN\SKYDRIVE\PROGRAMMING\C++\TETRIS\TETRIS\TETRISGAME.CPP
C:\USERS\KIERRAN\SKYDRIVE\PROGRAMMING\C++\TETRIS\TETRIS\DEBUG\VC110.PDB
^C:\USERS\KIERRAN\SKYDRIVE\PROGRAMMING\C++\TETRIS\TETRIS\ZBLOCK.CPP
C:\USERS\KIERRAN\SKYDRIVE\PROGRAMMING\C++\TETRIS\TETRIS\DEBUG\VC110.PDB
^C:\USERS\KIERRAN\APPDATA\LOCAL\TEMP\.NETFRAMEWORK,VERSION=V4.5.ASSEMBLYATTRIBUTES.CPP
C:\USERS\KIERRAN\SKYDRIVE\PROGRAMMING\C++\TETRIS\TETRIS\DEBUG\.NETFRAMEWORK,VERSION=V4.5.ASSEMBLYATTRIBUTES.OBJ
C:\USERS\KIERRAN\SKYDRIVE\PROGRAMMING\C++\TETRIS\TETRIS\DEBUG\VC110.PDB
