^D:\USERS\KIERRAN\SKYDRIVE\PROGRAMMING\C++\TETRIS\TETRIS\DEBUG\.NETFRAMEWORK,VERSION=V4.5.ASSEMBLYATTRIBUTES.OBJ|D:\USERS\KIERRAN\SKYDRIVE\PROGRAMMING\C++\TETRIS\TETRIS\DEBUG\APP.RES|D:\USERS\KIERRAN\SKYDRIVE\PROGRAMMING\C++\TETRIS\TETRIS\DEBUG\ASSEMBLYINFO.OBJ|D:\USERS\KIERRAN\SKYDRIVE\PROGRAMMING\C++\TETRIS\TETRIS\DEBUG\BLOCK.OBJ|D:\USERS\KIERRAN\SKYDRIVE\PROGRAMMING\C++\TETRIS\TETRIS\DEBUG\CELL.OBJ|D:\USERS\KIERRAN\SKYDRIVE\PROGRAMMING\C++\TETRIS\TETRIS\DEBUG\GRID.OBJ|D:\USERS\KIERRAN\SKYDRIVE\PROGRAMMING\C++\TETRIS\TETRIS\DEBUG\JBLOCK.OBJ|D:\USERS\KIERRAN\SKYDRIVE\PROGRAMMING\C++\TETRIS\TETRIS\DEBUG\LBLOCK.OBJ|D:\USERS\KIERRAN\SKYDRIVE\PROGRAMMING\C++\TETRIS\TETRIS\DEBUG\LONGBLOCK.OBJ|D:\USERS\KIERRAN\SKYDRIVE\PROGRAMMING\C++\TETRIS\TETRIS\DEBUG\SBLOCK.OBJ|D:\USERS\KIERRAN\SKYDRIVE\PROGRAMMING\C++\TETRIS\TETRIS\DEBUG\SQUAREBLOCK.OBJ|D:\USERS\KIERRAN\SKYDRIVE\PROGRAMMING\C++\TETRIS\TETRIS\DEBUG\STDAFX.OBJ|D:\USERS\KIERRAN\SKYDRIVE\PROGRAMMING\C++\TETRIS\TETRIS\DEBUG\TBLOCK.OBJ|D:\USERS\KIERRAN\SKYDRIVE\PROGRAMMING\C++\TETRIS\TETRIS\DEBUG\TETRIS.OBJ|D:\USERS\KIERRAN\SKYDRIVE\PROGRAMMING\C++\TETRIS\TETRIS\DEBUG\TETRISGAME.OBJ|D:\USERS\KIERRAN\SKYDRIVE\PROGRAMMING\C++\TETRIS\TETRIS\DEBUG\ZBLOCK.OBJ
D:\USERS\KIERRAN\SKYDRIVE\PROGRAMMING\C++\TETRIS\TETRIS\DEBUG\APP.RES
D:\USERS\KIERRAN\SKYDRIVE\PROGRAMMING\C++\TETRIS\TETRIS\DEBUG\ASSEMBLYINFO.OBJ
D:\USERS\KIERRAN\SKYDRIVE\PROGRAMMING\C++\TETRIS\TETRIS\DEBUG\BLOCK.OBJ
D:\USERS\KIERRAN\SKYDRIVE\PROGRAMMING\C++\TETRIS\TETRIS\DEBUG\CELL.OBJ
D:\USERS\KIERRAN\SKYDRIVE\PROGRAMMING\C++\TETRIS\TETRIS\DEBUG\GRID.OBJ
D:\USERS\KIERRAN\SKYDRIVE\PROGRAMMING\C++\TETRIS\TETRIS\DEBUG\JBLOCK.OBJ
D:\USERS\KIERRAN\SKYDRIVE\PROGRAMMING\C++\TETRIS\TETRIS\DEBUG\LBLOCK.OBJ
D:\USERS\KIERRAN\SKYDRIVE\PROGRAMMING\C++\TETRIS\TETRIS\DEBUG\LONGBLOCK.OBJ
D:\USERS\KIERRAN\SKYDRIVE\PROGRAMMING\C++\TETRIS\TETRIS\DEBUG\SBLOCK.OBJ
D:\USERS\KIERRAN\SKYDRIVE\PROGRAMMING\C++\TETRIS\TETRIS\DEBUG\SQUAREBLOCK.OBJ
D:\USERS\KIERRAN\SKYDRIVE\PROGRAMMING\C++\TETRIS\TETRIS\DEBUG\STDAFX.OBJ
D:\USERS\KIERRAN\SKYDRIVE\PROGRAMMING\C++\TETRIS\TETRIS\DEBUG\TBLOCK.OBJ
D:\USERS\KIERRAN\SKYDRIVE\PROGRAMMING\C++\TETRIS\TETRIS\DEBUG\TETRIS.OBJ
D:\USERS\KIERRAN\SKYDRIVE\PROGRAMMING\C++\TETRIS\TETRIS\DEBUG\TETRISGAME.OBJ
D:\USERS\KIERRAN\SKYDRIVE\PROGRAMMING\C++\TETRIS\TETRIS\DEBUG\ZBLOCK.OBJ
D:\USERS\KIERRAN\SKYDRIVE\PROGRAMMING\C++\TETRIS\TETRIS\DEBUG\.NETFRAMEWORK,VERSION=V4.5.ASSEMBLYATTRIBUTES.OBJ
C:\WINDOWS\SYSTEM32\TZRES.DLL
C:\WINDOWS\GLOBALIZATION\SORTING\SORTDEFAULT.NLS
D:\PROGRAM FILES (X86)\MICROSOFT VISUAL STUDIO 11.0\VC\BIN\LINK.EXE
C:\WINDOWS\MICROSOFT.NET\FRAMEWORK\V2.0.50727\MSCORWKS.DLL
C:\WINDOWS\MICROSOFT.NET\FRAMEWORK\V4.0.30319\CLR.DLL
D:\PROGRAM FILES (X86)\MICROSOFT VISUAL STUDIO 11.0\VC\BIN\LINK.EXE.CONFIG
D:\PROGRAM FILES (X86)\MICROSOFT VISUAL STUDIO 11.0\VC\LIB\OLDNAMES.LIB
D:\PROGRAM FILES (X86)\MICROSOFT VISUAL STUDIO 11.0\VC\LIB\MSVCURTD.LIB
D:\PROGRAM FILES (X86)\WINDOWS KITS\8.0\LIB\WIN8\UM\X86\MSCOREE.LIB
D:\PROGRAM FILES (X86)\WINDOWS KITS\8.0\LIB\WIN8\UM\X86\UUID.LIB
D:\PROGRAM FILES (X86)\WINDOWS KITS\8.0\LIB\WIN8\UM\X86\KERNEL32.LIB
D:\PROGRAM FILES (X86)\WINDOWS KITS\8.0\BIN\X86\RC.EXE
D:\PROGRAM FILES (X86)\MICROSOFT VISUAL STUDIO 11.0\VC\BIN\CVTRES.EXE
D:\USERS\KIERRAN\SKYDRIVE\PROGRAMMING\C++\TETRIS\TETRIS\DEBUG\TETRIS.FORM1.RESOURCES
