^D:\USERS\KIERRAN\SKYDRIVE\PROGRAMMING\C++\TETRIS\TETRIS\DEBUG\.NETFRAMEWORK,VERSION=V4.5.ASSEMBLYATTRIBUTES.OBJ|D:\USERS\KIERRAN\SKYDRIVE\PROGRAMMING\C++\TETRIS\TETRIS\DEBUG\APP.RES|D:\USERS\KIERRAN\SKYDRIVE\PROGRAMMING\C++\TETRIS\TETRIS\DEBUG\ASSEMBLYINFO.OBJ|D:\USERS\KIERRAN\SKYDRIVE\PROGRAMMING\C++\TETRIS\TETRIS\DEBUG\BLOCK.OBJ|D:\USERS\KIERRAN\SKYDRIVE\PROGRAMMING\C++\TETRIS\TETRIS\DEBUG\CELL.OBJ|D:\USERS\KIERRAN\SKYDRIVE\PROGRAMMING\C++\TETRIS\TETRIS\DEBUG\GRID.OBJ|D:\USERS\KIERRAN\SKYDRIVE\PROGRAMMING\C++\TETRIS\TETRIS\DEBUG\JBLOCK.OBJ|D:\USERS\KIERRAN\SKYDRIVE\PROGRAMMING\C++\TETRIS\TETRIS\DEBUG\LBLOCK.OBJ|D:\USERS\KIERRAN\SKYDRIVE\PROGRAMMING\C++\TETRIS\TETRIS\DEBUG\LONGBLOCK.OBJ|D:\USERS\KIERRAN\SKYDRIVE\PROGRAMMING\C++\TETRIS\TETRIS\DEBUG\SBLOCK.OBJ|D:\USERS\KIERRAN\SKYDRIVE\PROGRAMMING\C++\TETRIS\TETRIS\DEBUG\SQUAREBLOCK.OBJ|D:\USERS\KIERRAN\SKYDRIVE\PROGRAMMING\C++\TETRIS\TETRIS\DEBUG\STDAFX.OBJ|D:\USERS\KIERRAN\SKYDRIVE\PROGRAMMING\C++\TETRIS\TETRIS\DEBUG\TBLOCK.OBJ|D:\USERS\KIERRAN\SKYDRIVE\PROGRAMMING\C++\TETRIS\TETRIS\DEBUG\TETRIS.OBJ|D:\USERS\KIERRAN\SKYDRIVE\PROGRAMMING\C++\TETRIS\TETRIS\DEBUG\TETRISGAME.OBJ|D:\USERS\KIERRAN\SKYDRIVE\PROGRAMMING\C++\TETRIS\TETRIS\DEBUG\ZBLOCK.OBJ
D:\USERS\KIERRAN\SKYDRIVE\PROGRAMMING\C++\TETRIS\DEBUG\TETRIS.ILK
D:\USERS\KIERRAN\SKYDRIVE\PROGRAMMING\C++\TETRIS\DEBUG\TETRIS.EXE
D:\USERS\KIERRAN\SKYDRIVE\PROGRAMMING\C++\TETRIS\DEBUG\TETRIS.PDB
^C:\USERS\KIERRAN\SKYDRIVE\PROGRAMMING\C++\TETRIS\TETRIS\DEBUG\.NETFRAMEWORK,VERSION=V4.5.ASSEMBLYATTRIBUTES.OBJ|C:\USERS\KIERRAN\SKYDRIVE\PROGRAMMING\C++\TETRIS\TETRIS\DEBUG\APP.RES|C:\USERS\KIERRAN\SKYDRIVE\PROGRAMMING\C++\TETRIS\TETRIS\DEBUG\ASSEMBLYINFO.OBJ|C:\USERS\KIERRAN\SKYDRIVE\PROGRAMMING\C++\TETRIS\TETRIS\DEBUG\BLOCK.OBJ|C:\USERS\KIERRAN\SKYDRIVE\PROGRAMMING\C++\TETRIS\TETRIS\DEBUG\CELL.OBJ|C:\USERS\KIERRAN\SKYDRIVE\PROGRAMMING\C++\TETRIS\TETRIS\DEBUG\GRID.OBJ|C:\USERS\KIERRAN\SKYDRIVE\PROGRAMMING\C++\TETRIS\TETRIS\DEBUG\JBLOCK.OBJ|C:\USERS\KIERRAN\SKYDRIVE\PROGRAMMING\C++\TETRIS\TETRIS\DEBUG\LBLOCK.OBJ|C:\USERS\KIERRAN\SKYDRIVE\PROGRAMMING\C++\TETRIS\TETRIS\DEBUG\LONGBLOCK.OBJ|C:\USERS\KIERRAN\SKYDRIVE\PROGRAMMING\C++\TETRIS\TETRIS\DEBUG\SBLOCK.OBJ|C:\USERS\KIERRAN\SKYDRIVE\PROGRAMMING\C++\TETRIS\TETRIS\DEBUG\SQUAREBLOCK.OBJ|C:\USERS\KIERRAN\SKYDRIVE\PROGRAMMING\C++\TETRIS\TETRIS\DEBUG\STDAFX.OBJ|C:\USERS\KIERRAN\SKYDRIVE\PROGRAMMING\C++\TETRIS\TETRIS\DEBUG\TBLOCK.OBJ|C:\USERS\KIERRAN\SKYDRIVE\PROGRAMMING\C++\TETRIS\TETRIS\DEBUG\TETRIS.OBJ|C:\USERS\KIERRAN\SKYDRIVE\PROGRAMMING\C++\TETRIS\TETRIS\DEBUG\TETRISGAME.OBJ|C:\USERS\KIERRAN\SKYDRIVE\PROGRAMMING\C++\TETRIS\TETRIS\DEBUG\ZBLOCK.OBJ
C:\USERS\KIERRAN\SKYDRIVE\PROGRAMMING\C++\TETRIS\DEBUG\TETRIS.ILK
C:\USERS\KIERRAN\SKYDRIVE\PROGRAMMING\C++\TETRIS\DEBUG\TETRIS.EXE
C:\USERS\KIERRAN\SKYDRIVE\PROGRAMMING\C++\TETRIS\DEBUG\TETRIS.PDB
