^D:\USERS\KIERRAN\SKYDRIVE\PROGRAMMING\C++\TETRIS\TETRIS\STDAFX.CPP
/c /AI"D:\Program Files (x86)\Reference Assemblies\Microsoft\Framework\.NETFramework\v4.5\\" /AI"D:\Program Files (x86)\Windows Kits\8.0\References\CommonConfiguration\Neutral" /AI"D:\Program Files (x86)\Reference Assemblies\Microsoft\Framework\.NETFramework\v4.5\Facades\\" /Zi /clr:pure /nologo /W3 /WX- /O2 /Oy- /D WIN32 /D NDEBUG /D _UNICODE /D UNICODE /EHa /MD /GS /fp:precise /Zc:wchar_t /Zc:forScope /Yc"stdafx.h" /Fp"RELEASE\TETRIS.PCH" /Fo"RELEASE\\" /Fd"RELEASE\VC110.PDB" /TP /FU"D:\Program Files (x86)\Reference Assemblies\Microsoft\Framework\.NETFramework\v4.5\mscorlib.dll" /FU"D:\Program Files (x86)\Reference Assemblies\Microsoft\Framework\.NETFramework\v4.5\System.Data.dll" /FU"D:\Program Files (x86)\Reference Assemblies\Microsoft\Framework\.NETFramework\v4.5\System.dll" /FU"D:\Program Files (x86)\Reference Assemblies\Microsoft\Framework\.NETFramework\v4.5\System.Drawing.dll" /FU"D:\Program Files (x86)\Reference Assemblies\Microsoft\Framework\.NETFramework\v4.5\System.Windows.Forms.dll" /FU"D:\Program Files (x86)\Reference Assemblies\Microsoft\Framework\.NETFramework\v4.5\System.Xml.dll" /analyze- /clr:nostdlib  D:\USERS\KIERRAN\SKYDRIVE\PROGRAMMING\C++\TETRIS\TETRIS\STDAFX.CPP
^D:\USERS\KIERRAN\SKYDRIVE\PROGRAMMING\C++\TETRIS\TETRIS\ASSEMBLYINFO.CPP
/c /AI"D:\Program Files (x86)\Reference Assemblies\Microsoft\Framework\.NETFramework\v4.5\\" /AI"D:\Program Files (x86)\Windows Kits\8.0\References\CommonConfiguration\Neutral" /AI"D:\Program Files (x86)\Reference Assemblies\Microsoft\Framework\.NETFramework\v4.5\Facades\\" /Zi /clr:pure /nologo /W3 /WX- /O2 /Oy- /D WIN32 /D NDEBUG /D _UNICODE /D UNICODE /EHa /MD /GS /fp:precise /Zc:wchar_t /Zc:forScope /Yu"stdafx.h" /Fp"RELEASE\TETRIS.PCH" /Fo"RELEASE\\" /Fd"RELEASE\VC110.PDB" /TP /FU"D:\Program Files (x86)\Reference Assemblies\Microsoft\Framework\.NETFramework\v4.5\mscorlib.dll" /FU"D:\Program Files (x86)\Reference Assemblies\Microsoft\Framework\.NETFramework\v4.5\System.Data.dll" /FU"D:\Program Files (x86)\Reference Assemblies\Microsoft\Framework\.NETFramework\v4.5\System.dll" /FU"D:\Program Files (x86)\Reference Assemblies\Microsoft\Framework\.NETFramework\v4.5\System.Drawing.dll" /FU"D:\Program Files (x86)\Reference Assemblies\Microsoft\Framework\.NETFramework\v4.5\System.Windows.Forms.dll" /FU"D:\Program Files (x86)\Reference Assemblies\Microsoft\Framework\.NETFramework\v4.5\System.Xml.dll" /analyze- /clr:nostdlib  D:\USERS\KIERRAN\SKYDRIVE\PROGRAMMING\C++\TETRIS\TETRIS\ASSEMBLYINFO.CPP
^D:\USERS\KIERRAN\SKYDRIVE\PROGRAMMING\C++\TETRIS\TETRIS\BLOCK.CPP
/c /AI"D:\Program Files (x86)\Reference Assemblies\Microsoft\Framework\.NETFramework\v4.5\\" /AI"D:\Program Files (x86)\Windows Kits\8.0\References\CommonConfiguration\Neutral" /AI"D:\Program Files (x86)\Reference Assemblies\Microsoft\Framework\.NETFramework\v4.5\Facades\\" /Zi /clr:pure /nologo /W3 /WX- /O2 /Oy- /D WIN32 /D NDEBUG /D _UNICODE /D UNICODE /EHa /MD /GS /fp:precise /Zc:wchar_t /Zc:forScope /Yu"stdafx.h" /Fp"RELEASE\TETRIS.PCH" /Fo"RELEASE\\" /Fd"RELEASE\VC110.PDB" /TP /FU"D:\Program Files (x86)\Reference Assemblies\Microsoft\Framework\.NETFramework\v4.5\mscorlib.dll" /FU"D:\Program Files (x86)\Reference Assemblies\Microsoft\Framework\.NETFramework\v4.5\System.Data.dll" /FU"D:\Program Files (x86)\Reference Assemblies\Microsoft\Framework\.NETFramework\v4.5\System.dll" /FU"D:\Program Files (x86)\Reference Assemblies\Microsoft\Framework\.NETFramework\v4.5\System.Drawing.dll" /FU"D:\Program Files (x86)\Reference Assemblies\Microsoft\Framework\.NETFramework\v4.5\System.Windows.Forms.dll" /FU"D:\Program Files (x86)\Reference Assemblies\Microsoft\Framework\.NETFramework\v4.5\System.Xml.dll" /analyze- /clr:nostdlib  D:\USERS\KIERRAN\SKYDRIVE\PROGRAMMING\C++\TETRIS\TETRIS\BLOCK.CPP
^D:\USERS\KIERRAN\SKYDRIVE\PROGRAMMING\C++\TETRIS\TETRIS\CELL.CPP
/c /AI"D:\Program Files (x86)\Reference Assemblies\Microsoft\Framework\.NETFramework\v4.5\\" /AI"D:\Program Files (x86)\Windows Kits\8.0\References\CommonConfiguration\Neutral" /AI"D:\Program Files (x86)\Reference Assemblies\Microsoft\Framework\.NETFramework\v4.5\Facades\\" /Zi /clr:pure /nologo /W3 /WX- /O2 /Oy- /D WIN32 /D NDEBUG /D _UNICODE /D UNICODE /EHa /MD /GS /fp:precise /Zc:wchar_t /Zc:forScope /Yu"stdafx.h" /Fp"RELEASE\TETRIS.PCH" /Fo"RELEASE\\" /Fd"RELEASE\VC110.PDB" /TP /FU"D:\Program Files (x86)\Reference Assemblies\Microsoft\Framework\.NETFramework\v4.5\mscorlib.dll" /FU"D:\Program Files (x86)\Reference Assemblies\Microsoft\Framework\.NETFramework\v4.5\System.Data.dll" /FU"D:\Program Files (x86)\Reference Assemblies\Microsoft\Framework\.NETFramework\v4.5\System.dll" /FU"D:\Program Files (x86)\Reference Assemblies\Microsoft\Framework\.NETFramework\v4.5\System.Drawing.dll" /FU"D:\Program Files (x86)\Reference Assemblies\Microsoft\Framework\.NETFramework\v4.5\System.Windows.Forms.dll" /FU"D:\Program Files (x86)\Reference Assemblies\Microsoft\Framework\.NETFramework\v4.5\System.Xml.dll" /analyze- /clr:nostdlib  D:\USERS\KIERRAN\SKYDRIVE\PROGRAMMING\C++\TETRIS\TETRIS\CELL.CPP
^D:\USERS\KIERRAN\SKYDRIVE\PROGRAMMING\C++\TETRIS\TETRIS\GRID.CPP
/c /AI"D:\Program Files (x86)\Reference Assemblies\Microsoft\Framework\.NETFramework\v4.5\\" /AI"D:\Program Files (x86)\Windows Kits\8.0\References\CommonConfiguration\Neutral" /AI"D:\Program Files (x86)\Reference Assemblies\Microsoft\Framework\.NETFramework\v4.5\Facades\\" /Zi /clr:pure /nologo /W3 /WX- /O2 /Oy- /D WIN32 /D NDEBUG /D _UNICODE /D UNICODE /EHa /MD /GS /fp:precise /Zc:wchar_t /Zc:forScope /Yu"stdafx.h" /Fp"RELEASE\TETRIS.PCH" /Fo"RELEASE\\" /Fd"RELEASE\VC110.PDB" /TP /FU"D:\Program Files (x86)\Reference Assemblies\Microsoft\Framework\.NETFramework\v4.5\mscorlib.dll" /FU"D:\Program Files (x86)\Reference Assemblies\Microsoft\Framework\.NETFramework\v4.5\System.Data.dll" /FU"D:\Program Files (x86)\Reference Assemblies\Microsoft\Framework\.NETFramework\v4.5\System.dll" /FU"D:\Program Files (x86)\Reference Assemblies\Microsoft\Framework\.NETFramework\v4.5\System.Drawing.dll" /FU"D:\Program Files (x86)\Reference Assemblies\Microsoft\Framework\.NETFramework\v4.5\System.Windows.Forms.dll" /FU"D:\Program Files (x86)\Reference Assemblies\Microsoft\Framework\.NETFramework\v4.5\System.Xml.dll" /analyze- /clr:nostdlib  D:\USERS\KIERRAN\SKYDRIVE\PROGRAMMING\C++\TETRIS\TETRIS\GRID.CPP
^D:\USERS\KIERRAN\SKYDRIVE\PROGRAMMING\C++\TETRIS\TETRIS\JBLOCK.CPP
/c /AI"D:\Program Files (x86)\Reference Assemblies\Microsoft\Framework\.NETFramework\v4.5\\" /AI"D:\Program Files (x86)\Windows Kits\8.0\References\CommonConfiguration\Neutral" /AI"D:\Program Files (x86)\Reference Assemblies\Microsoft\Framework\.NETFramework\v4.5\Facades\\" /Zi /clr:pure /nologo /W3 /WX- /O2 /Oy- /D WIN32 /D NDEBUG /D _UNICODE /D UNICODE /EHa /MD /GS /fp:precise /Zc:wchar_t /Zc:forScope /Yu"stdafx.h" /Fp"RELEASE\TETRIS.PCH" /Fo"RELEASE\\" /Fd"RELEASE\VC110.PDB" /TP /FU"D:\Program Files (x86)\Reference Assemblies\Microsoft\Framework\.NETFramework\v4.5\mscorlib.dll" /FU"D:\Program Files (x86)\Reference Assemblies\Microsoft\Framework\.NETFramework\v4.5\System.Data.dll" /FU"D:\Program Files (x86)\Reference Assemblies\Microsoft\Framework\.NETFramework\v4.5\System.dll" /FU"D:\Program Files (x86)\Reference Assemblies\Microsoft\Framework\.NETFramework\v4.5\System.Drawing.dll" /FU"D:\Program Files (x86)\Reference Assemblies\Microsoft\Framework\.NETFramework\v4.5\System.Windows.Forms.dll" /FU"D:\Program Files (x86)\Reference Assemblies\Microsoft\Framework\.NETFramework\v4.5\System.Xml.dll" /analyze- /clr:nostdlib  D:\USERS\KIERRAN\SKYDRIVE\PROGRAMMING\C++\TETRIS\TETRIS\JBLOCK.CPP
^D:\USERS\KIERRAN\SKYDRIVE\PROGRAMMING\C++\TETRIS\TETRIS\LBLOCK.CPP
/c /AI"D:\Program Files (x86)\Reference Assemblies\Microsoft\Framework\.NETFramework\v4.5\\" /AI"D:\Program Files (x86)\Windows Kits\8.0\References\CommonConfiguration\Neutral" /AI"D:\Program Files (x86)\Reference Assemblies\Microsoft\Framework\.NETFramework\v4.5\Facades\\" /Zi /clr:pure /nologo /W3 /WX- /O2 /Oy- /D WIN32 /D NDEBUG /D _UNICODE /D UNICODE /EHa /MD /GS /fp:precise /Zc:wchar_t /Zc:forScope /Yu"stdafx.h" /Fp"RELEASE\TETRIS.PCH" /Fo"RELEASE\\" /Fd"RELEASE\VC110.PDB" /TP /FU"D:\Program Files (x86)\Reference Assemblies\Microsoft\Framework\.NETFramework\v4.5\mscorlib.dll" /FU"D:\Program Files (x86)\Reference Assemblies\Microsoft\Framework\.NETFramework\v4.5\System.Data.dll" /FU"D:\Program Files (x86)\Reference Assemblies\Microsoft\Framework\.NETFramework\v4.5\System.dll" /FU"D:\Program Files (x86)\Reference Assemblies\Microsoft\Framework\.NETFramework\v4.5\System.Drawing.dll" /FU"D:\Program Files (x86)\Reference Assemblies\Microsoft\Framework\.NETFramework\v4.5\System.Windows.Forms.dll" /FU"D:\Program Files (x86)\Reference Assemblies\Microsoft\Framework\.NETFramework\v4.5\System.Xml.dll" /analyze- /clr:nostdlib  D:\USERS\KIERRAN\SKYDRIVE\PROGRAMMING\C++\TETRIS\TETRIS\LBLOCK.CPP
^D:\USERS\KIERRAN\SKYDRIVE\PROGRAMMING\C++\TETRIS\TETRIS\LONGBLOCK.CPP
/c /AI"D:\Program Files (x86)\Reference Assemblies\Microsoft\Framework\.NETFramework\v4.5\\" /AI"D:\Program Files (x86)\Windows Kits\8.0\References\CommonConfiguration\Neutral" /AI"D:\Program Files (x86)\Reference Assemblies\Microsoft\Framework\.NETFramework\v4.5\Facades\\" /Zi /clr:pure /nologo /W3 /WX- /O2 /Oy- /D WIN32 /D NDEBUG /D _UNICODE /D UNICODE /EHa /MD /GS /fp:precise /Zc:wchar_t /Zc:forScope /Yu"stdafx.h" /Fp"RELEASE\TETRIS.PCH" /Fo"RELEASE\\" /Fd"RELEASE\VC110.PDB" /TP /FU"D:\Program Files (x86)\Reference Assemblies\Microsoft\Framework\.NETFramework\v4.5\mscorlib.dll" /FU"D:\Program Files (x86)\Reference Assemblies\Microsoft\Framework\.NETFramework\v4.5\System.Data.dll" /FU"D:\Program Files (x86)\Reference Assemblies\Microsoft\Framework\.NETFramework\v4.5\System.dll" /FU"D:\Program Files (x86)\Reference Assemblies\Microsoft\Framework\.NETFramework\v4.5\System.Drawing.dll" /FU"D:\Program Files (x86)\Reference Assemblies\Microsoft\Framework\.NETFramework\v4.5\System.Windows.Forms.dll" /FU"D:\Program Files (x86)\Reference Assemblies\Microsoft\Framework\.NETFramework\v4.5\System.Xml.dll" /analyze- /clr:nostdlib  D:\USERS\KIERRAN\SKYDRIVE\PROGRAMMING\C++\TETRIS\TETRIS\LONGBLOCK.CPP
^D:\USERS\KIERRAN\SKYDRIVE\PROGRAMMING\C++\TETRIS\TETRIS\SBLOCK.CPP
/c /AI"D:\Program Files (x86)\Reference Assemblies\Microsoft\Framework\.NETFramework\v4.5\\" /AI"D:\Program Files (x86)\Windows Kits\8.0\References\CommonConfiguration\Neutral" /AI"D:\Program Files (x86)\Reference Assemblies\Microsoft\Framework\.NETFramework\v4.5\Facades\\" /Zi /clr:pure /nologo /W3 /WX- /O2 /Oy- /D WIN32 /D NDEBUG /D _UNICODE /D UNICODE /EHa /MD /GS /fp:precise /Zc:wchar_t /Zc:forScope /Yu"stdafx.h" /Fp"RELEASE\TETRIS.PCH" /Fo"RELEASE\\" /Fd"RELEASE\VC110.PDB" /TP /FU"D:\Program Files (x86)\Reference Assemblies\Microsoft\Framework\.NETFramework\v4.5\mscorlib.dll" /FU"D:\Program Files (x86)\Reference Assemblies\Microsoft\Framework\.NETFramework\v4.5\System.Data.dll" /FU"D:\Program Files (x86)\Reference Assemblies\Microsoft\Framework\.NETFramework\v4.5\System.dll" /FU"D:\Program Files (x86)\Reference Assemblies\Microsoft\Framework\.NETFramework\v4.5\System.Drawing.dll" /FU"D:\Program Files (x86)\Reference Assemblies\Microsoft\Framework\.NETFramework\v4.5\System.Windows.Forms.dll" /FU"D:\Program Files (x86)\Reference Assemblies\Microsoft\Framework\.NETFramework\v4.5\System.Xml.dll" /analyze- /clr:nostdlib  D:\USERS\KIERRAN\SKYDRIVE\PROGRAMMING\C++\TETRIS\TETRIS\SBLOCK.CPP
^D:\USERS\KIERRAN\SKYDRIVE\PROGRAMMING\C++\TETRIS\TETRIS\SQUAREBLOCK.CPP
/c /AI"D:\Program Files (x86)\Reference Assemblies\Microsoft\Framework\.NETFramework\v4.5\\" /AI"D:\Program Files (x86)\Windows Kits\8.0\References\CommonConfiguration\Neutral" /AI"D:\Program Files (x86)\Reference Assemblies\Microsoft\Framework\.NETFramework\v4.5\Facades\\" /Zi /clr:pure /nologo /W3 /WX- /O2 /Oy- /D WIN32 /D NDEBUG /D _UNICODE /D UNICODE /EHa /MD /GS /fp:precise /Zc:wchar_t /Zc:forScope /Yu"stdafx.h" /Fp"RELEASE\TETRIS.PCH" /Fo"RELEASE\\" /Fd"RELEASE\VC110.PDB" /TP /FU"D:\Program Files (x86)\Reference Assemblies\Microsoft\Framework\.NETFramework\v4.5\mscorlib.dll" /FU"D:\Program Files (x86)\Reference Assemblies\Microsoft\Framework\.NETFramework\v4.5\System.Data.dll" /FU"D:\Program Files (x86)\Reference Assemblies\Microsoft\Framework\.NETFramework\v4.5\System.dll" /FU"D:\Program Files (x86)\Reference Assemblies\Microsoft\Framework\.NETFramework\v4.5\System.Drawing.dll" /FU"D:\Program Files (x86)\Reference Assemblies\Microsoft\Framework\.NETFramework\v4.5\System.Windows.Forms.dll" /FU"D:\Program Files (x86)\Reference Assemblies\Microsoft\Framework\.NETFramework\v4.5\System.Xml.dll" /analyze- /clr:nostdlib  D:\USERS\KIERRAN\SKYDRIVE\PROGRAMMING\C++\TETRIS\TETRIS\SQUAREBLOCK.CPP
^D:\USERS\KIERRAN\SKYDRIVE\PROGRAMMING\C++\TETRIS\TETRIS\TBLOCK.CPP
/c /AI"D:\Program Files (x86)\Reference Assemblies\Microsoft\Framework\.NETFramework\v4.5\\" /AI"D:\Program Files (x86)\Windows Kits\8.0\References\CommonConfiguration\Neutral" /AI"D:\Program Files (x86)\Reference Assemblies\Microsoft\Framework\.NETFramework\v4.5\Facades\\" /Zi /clr:pure /nologo /W3 /WX- /O2 /Oy- /D WIN32 /D NDEBUG /D _UNICODE /D UNICODE /EHa /MD /GS /fp:precise /Zc:wchar_t /Zc:forScope /Yu"stdafx.h" /Fp"RELEASE\TETRIS.PCH" /Fo"RELEASE\\" /Fd"RELEASE\VC110.PDB" /TP /FU"D:\Program Files (x86)\Reference Assemblies\Microsoft\Framework\.NETFramework\v4.5\mscorlib.dll" /FU"D:\Program Files (x86)\Reference Assemblies\Microsoft\Framework\.NETFramework\v4.5\System.Data.dll" /FU"D:\Program Files (x86)\Reference Assemblies\Microsoft\Framework\.NETFramework\v4.5\System.dll" /FU"D:\Program Files (x86)\Reference Assemblies\Microsoft\Framework\.NETFramework\v4.5\System.Drawing.dll" /FU"D:\Program Files (x86)\Reference Assemblies\Microsoft\Framework\.NETFramework\v4.5\System.Windows.Forms.dll" /FU"D:\Program Files (x86)\Reference Assemblies\Microsoft\Framework\.NETFramework\v4.5\System.Xml.dll" /analyze- /clr:nostdlib  D:\USERS\KIERRAN\SKYDRIVE\PROGRAMMING\C++\TETRIS\TETRIS\TBLOCK.CPP
^D:\USERS\KIERRAN\SKYDRIVE\PROGRAMMING\C++\TETRIS\TETRIS\ZBLOCK.CPP
/c /AI"D:\Program Files (x86)\Reference Assemblies\Microsoft\Framework\.NETFramework\v4.5\\" /AI"D:\Program Files (x86)\Windows Kits\8.0\References\CommonConfiguration\Neutral" /AI"D:\Program Files (x86)\Reference Assemblies\Microsoft\Framework\.NETFramework\v4.5\Facades\\" /Zi /clr:pure /nologo /W3 /WX- /O2 /Oy- /D WIN32 /D NDEBUG /D _UNICODE /D UNICODE /EHa /MD /GS /fp:precise /Zc:wchar_t /Zc:forScope /Yu"stdafx.h" /Fp"RELEASE\TETRIS.PCH" /Fo"RELEASE\\" /Fd"RELEASE\VC110.PDB" /TP /FU"D:\Program Files (x86)\Reference Assemblies\Microsoft\Framework\.NETFramework\v4.5\mscorlib.dll" /FU"D:\Program Files (x86)\Reference Assemblies\Microsoft\Framework\.NETFramework\v4.5\System.Data.dll" /FU"D:\Program Files (x86)\Reference Assemblies\Microsoft\Framework\.NETFramework\v4.5\System.dll" /FU"D:\Program Files (x86)\Reference Assemblies\Microsoft\Framework\.NETFramework\v4.5\System.Drawing.dll" /FU"D:\Program Files (x86)\Reference Assemblies\Microsoft\Framework\.NETFramework\v4.5\System.Windows.Forms.dll" /FU"D:\Program Files (x86)\Reference Assemblies\Microsoft\Framework\.NETFramework\v4.5\System.Xml.dll" /analyze- /clr:nostdlib  D:\USERS\KIERRAN\SKYDRIVE\PROGRAMMING\C++\TETRIS\TETRIS\ZBLOCK.CPP
^D:\USERS\KIERRAN\APPDATA\LOCAL\TEMP\.NETFRAMEWORK,VERSION=V4.5.ASSEMBLYATTRIBUTES.CPP
/c /Zi /clr:pure /nologo /W3 /WX- /O2 /Oy- /D WIN32 /D NDEBUG /D _UNICODE /D UNICODE /EHa /MD /GS /fp:precise /Zc:wchar_t /Zc:forScope /Fo"RELEASE\\" /Fd"RELEASE\VC110.PDB" /TP /analyze- D:\USERS\KIERRAN\APPDATA\LOCAL\TEMP\.NETFRAMEWORK,VERSION=V4.5.ASSEMBLYATTRIBUTES.CPP
^D:\USERS\KIERRAN\SKYDRIVE\PROGRAMMING\C++\TETRIS\TETRIS\TETRIS.CPP
/c /AI"D:\Program Files (x86)\Reference Assemblies\Microsoft\Framework\.NETFramework\v4.5\\" /AI"D:\Program Files (x86)\Windows Kits\8.0\References\CommonConfiguration\Neutral" /AI"D:\Program Files (x86)\Reference Assemblies\Microsoft\Framework\.NETFramework\v4.5\Facades\\" /Zi /clr:pure /nologo /W3 /WX- /O2 /Oy- /D WIN32 /D NDEBUG /D _UNICODE /D UNICODE /EHa /MD /GS /fp:precise /Zc:wchar_t /Zc:forScope /Yu"stdafx.h" /Fp"RELEASE\TETRIS.PCH" /Fo"RELEASE\\" /Fd"RELEASE\VC110.PDB" /TP /FU"D:\Program Files (x86)\Reference Assemblies\Microsoft\Framework\.NETFramework\v4.5\mscorlib.dll" /FU"D:\Program Files (x86)\Reference Assemblies\Microsoft\Framework\.NETFramework\v4.5\System.Data.dll" /FU"D:\Program Files (x86)\Reference Assemblies\Microsoft\Framework\.NETFramework\v4.5\System.dll" /FU"D:\Program Files (x86)\Reference Assemblies\Microsoft\Framework\.NETFramework\v4.5\System.Drawing.dll" /FU"D:\Program Files (x86)\Reference Assemblies\Microsoft\Framework\.NETFramework\v4.5\System.Windows.Forms.dll" /FU"D:\Program Files (x86)\Reference Assemblies\Microsoft\Framework\.NETFramework\v4.5\System.Xml.dll" /analyze- /clr:nostdlib  D:\USERS\KIERRAN\SKYDRIVE\PROGRAMMING\C++\TETRIS\TETRIS\TETRIS.CPP
^D:\USERS\KIERRAN\SKYDRIVE\PROGRAMMING\C++\TETRIS\TETRIS\TETRISGAME.CPP
/c /AI"D:\Program Files (x86)\Reference Assemblies\Microsoft\Framework\.NETFramework\v4.5\\" /AI"D:\Program Files (x86)\Windows Kits\8.0\References\CommonConfiguration\Neutral" /AI"D:\Program Files (x86)\Reference Assemblies\Microsoft\Framework\.NETFramework\v4.5\Facades\\" /Zi /clr:pure /nologo /W3 /WX- /O2 /Oy- /D WIN32 /D NDEBUG /D _UNICODE /D UNICODE /EHa /MD /GS /fp:precise /Zc:wchar_t /Zc:forScope /Yu"stdafx.h" /Fp"RELEASE\TETRIS.PCH" /Fo"RELEASE\\" /Fd"RELEASE\VC110.PDB" /TP /FU"D:\Program Files (x86)\Reference Assemblies\Microsoft\Framework\.NETFramework\v4.5\mscorlib.dll" /FU"D:\Program Files (x86)\Reference Assemblies\Microsoft\Framework\.NETFramework\v4.5\System.Data.dll" /FU"D:\Program Files (x86)\Reference Assemblies\Microsoft\Framework\.NETFramework\v4.5\System.dll" /FU"D:\Program Files (x86)\Reference Assemblies\Microsoft\Framework\.NETFramework\v4.5\System.Drawing.dll" /FU"D:\Program Files (x86)\Reference Assemblies\Microsoft\Framework\.NETFramework\v4.5\System.Windows.Forms.dll" /FU"D:\Program Files (x86)\Reference Assemblies\Microsoft\Framework\.NETFramework\v4.5\System.Xml.dll" /analyze- /clr:nostdlib  D:\USERS\KIERRAN\SKYDRIVE\PROGRAMMING\C++\TETRIS\TETRIS\TETRISGAME.CPP
